Library/Bee/artifacts/mvdfrm/Unity.AI.Navigation.Editor.ConversionSystem.ref.dll_9957BA1AF208A4B4.mvfrm
Library/Bee/artifacts/mvdfrm/Unity.AI.Navigation.Editor.ref.dll_61B1FDAFDA0EF665.mvfrm
Library/Bee/artifacts/mvdfrm/Unity.AI.Navigation.Updater.ref.dll_EBACA68F09445567.mvfrm
Library/Bee/artifacts/mvdfrm/Unity.AI.Navigation.ref.dll_B8DD527C37A2B60C.mvfrm
Library/Bee/artifacts/mvdfrm/Unity.EditorCoroutines.Editor.ref.dll_1315E0A407C70415.mvfrm
Library/Bee/artifacts/mvdfrm/Unity.Performance.Profile-Analyzer.Editor.ref.dll_8B44F821019897E5.mvfrm
Library/Bee/artifacts/mvdfrm/Unity.PlasticSCM.Editor.ref.dll_A558B9E65539D7D0.mvfrm
Library/Bee/artifacts/mvdfrm/Unity.Rider.Editor.ref.dll_DA88E6A3E9EB6155.mvfrm
Library/Bee/artifacts/mvdfrm/Unity.TestTools.CodeCoverage.Editor.OpenCover.Model.ref.dll_22F664961FC0158D.mvfrm
Library/Bee/artifacts/mvdfrm/Unity.TestTools.CodeCoverage.Editor.OpenCover.Mono.Reflection.ref.dll_39D3266F6029657A.mvfrm
Library/Bee/artifacts/mvdfrm/Unity.TestTools.CodeCoverage.Editor.ref.dll_C6D619E6129B87D3.mvfrm
Library/Bee/artifacts/mvdfrm/Unity.TextMeshPro.Editor.ref.dll_D0BA3615D322EF6C.mvfrm
Library/Bee/artifacts/mvdfrm/Unity.TextMeshPro.ref.dll_02929A3ECA791895.mvfrm
Library/Bee/artifacts/mvdfrm/Unity.Timeline.Editor.ref.dll_17F688653313AA4C.mvfrm
Library/Bee/artifacts/mvdfrm/Unity.Timeline.ref.dll_16F8EA6B67022FB5.mvfrm
Library/Bee/artifacts/mvdfrm/Unity.VSCode.Editor.ref.dll_AE868214B5ED3D13.mvfrm
Library/Bee/artifacts/mvdfrm/Unity.VisualScripting.Core.Editor.ref.dll_514B12BC0D1D8DB7.mvfrm
Library/Bee/artifacts/mvdfrm/Unity.VisualScripting.Core.ref.dll_BF8650D11F8E519A.mvfrm
Library/Bee/artifacts/mvdfrm/Unity.VisualScripting.Flow.Editor.ref.dll_CE7BFB6B1BFC18F8.mvfrm
Library/Bee/artifacts/mvdfrm/Unity.VisualScripting.Flow.ref.dll_06973127A197C649.mvfrm
Library/Bee/artifacts/mvdfrm/Unity.VisualScripting.SettingsProvider.Editor.ref.dll_EE1755C0672F8EE2.mvfrm
Library/Bee/artifacts/mvdfrm/Unity.VisualScripting.Shared.Editor.ref.dll_6CA31C4FA5286AB1.mvfrm
Library/Bee/artifacts/mvdfrm/Unity.VisualScripting.State.Editor.ref.dll_DC1879B0E64A8F15.mvfrm
Library/Bee/artifacts/mvdfrm/Unity.VisualScripting.State.ref.dll_900B338E31D9525C.mvfrm
Library/Bee/artifacts/mvdfrm/Unity.VisualStudio.Editor.ref.dll_0FE027DDD6F41767.mvfrm
Library/Bee/artifacts/mvdfrm/UnityEditor.TestRunner.ref.dll_A805A84D9B0C22D9.mvfrm
Library/Bee/artifacts/mvdfrm/UnityEditor.UI.ref.dll_0174E068A5FA251B.mvfrm
Library/Bee/artifacts/mvdfrm/UnityEngine.TestRunner.ref.dll_7423F2FBC6CF80C4.mvfrm
Library/Bee/artifacts/mvdfrm/UnityEngine.UI.ref.dll_BDDAB6C3AC1C4D86.mvfrm
Library/Bee/artifacts/mvdfrm/UnityEditor.Graphs.dll_8DFFBC503B18DA40.mvfrm
Library/Bee/artifacts/mvdfrm/UnityEditor.CoreModule.dll_A305DBB06575DE0E.mvfrm
Library/Bee/artifacts/mvdfrm/UnityEditor.DeviceSimulatorModule.dll_4DD53F6C5FF0EF13.mvfrm
Library/Bee/artifacts/mvdfrm/UnityEditor.DiagnosticsModule.dll_761BBFF92DBEA4A1.mvfrm
Library/Bee/artifacts/mvdfrm/UnityEditor.EditorToolbarModule.dll_28ADAF43EA2F7883.mvfrm
Library/Bee/artifacts/mvdfrm/UnityEditor.GraphViewModule.dll_6EBD83862E5BFE58.mvfrm
Library/Bee/artifacts/mvdfrm/UnityEditor.PresetsUIModule.dll_2A23BC6830B4565D.mvfrm
Library/Bee/artifacts/mvdfrm/UnityEditor.QuickSearchModule.dll_012B41068695A0FA.mvfrm
Library/Bee/artifacts/mvdfrm/UnityEditor.SceneTemplateModule.dll_4C4D2001E91C22BB.mvfrm
Library/Bee/artifacts/mvdfrm/UnityEditor.SceneViewModule.dll_AD6D668E237ECB66.mvfrm
Library/Bee/artifacts/mvdfrm/UnityEditor.TextCoreFontEngineModule.dll_68E83DE5B07FC7CC.mvfrm
Library/Bee/artifacts/mvdfrm/UnityEditor.TextCoreTextEngineModule.dll_B0D07457400380EA.mvfrm
Library/Bee/artifacts/mvdfrm/UnityEditor.UIBuilderModule.dll_C34630A2A114778C.mvfrm
Library/Bee/artifacts/mvdfrm/UnityEditor.UIElementsModule.dll_A2C41D259CA81E8A.mvfrm
Library/Bee/artifacts/mvdfrm/UnityEditor.UIElementsSamplesModule.dll_7A09EA82E564F983.mvfrm
Library/Bee/artifacts/mvdfrm/UnityEditor.UnityConnectModule.dll_FCCA49F4C04B93C4.mvfrm
Library/Bee/artifacts/mvdfrm/UnityEditor.dll_95381E8FD3252E27.mvfrm
Library/Bee/artifacts/mvdfrm/UnityEngine.AIModule.dll_43B854B1CCFF76A2.mvfrm
Library/Bee/artifacts/mvdfrm/UnityEngine.ARModule.dll_FD2B19B52A1CD56B.mvfrm
Library/Bee/artifacts/mvdfrm/UnityEngine.AccessibilityModule.dll_7EF28B98E9924A58.mvfrm
Library/Bee/artifacts/mvdfrm/UnityEngine.AndroidJNIModule.dll_210D05F8E5C78D60.mvfrm
Library/Bee/artifacts/mvdfrm/UnityEngine.AnimationModule.dll_3D42FFAF08B8D2FE.mvfrm
Library/Bee/artifacts/mvdfrm/UnityEngine.AssetBundleModule.dll_451473F7E8FC55EC.mvfrm
Library/Bee/artifacts/mvdfrm/UnityEngine.AudioModule.dll_C28DAD36B9404470.mvfrm
Library/Bee/artifacts/mvdfrm/UnityEngine.ClothModule.dll_29760A31935D2354.mvfrm
Library/Bee/artifacts/mvdfrm/UnityEngine.ClusterInputModule.dll_7C66BF0A71D3668A.mvfrm
Library/Bee/artifacts/mvdfrm/UnityEngine.ClusterRendererModule.dll_538201DDCFABFC97.mvfrm
Library/Bee/artifacts/mvdfrm/UnityEngine.ContentLoadModule.dll_DE2ACD38B77EFDD9.mvfrm
Library/Bee/artifacts/mvdfrm/UnityEngine.CoreModule.dll_C626AF030D7B4939.mvfrm
Library/Bee/artifacts/mvdfrm/UnityEngine.CrashReportingModule.dll_8FCF19BA7F115A71.mvfrm
Library/Bee/artifacts/mvdfrm/UnityEngine.DSPGraphModule.dll_1653BFBB66006EB7.mvfrm
Library/Bee/artifacts/mvdfrm/UnityEngine.DirectorModule.dll_11025E51F39F9D96.mvfrm
Library/Bee/artifacts/mvdfrm/UnityEngine.GIModule.dll_DBF49DBF68AE5EBC.mvfrm
Library/Bee/artifacts/mvdfrm/UnityEngine.GameCenterModule.dll_4B5A5013AC087E51.mvfrm
Library/Bee/artifacts/mvdfrm/UnityEngine.GridModule.dll_A397CAF125CFDF30.mvfrm
Library/Bee/artifacts/mvdfrm/UnityEngine.HotReloadModule.dll_BE8BBDB4E3EBEE80.mvfrm
Library/Bee/artifacts/mvdfrm/UnityEngine.IMGUIModule.dll_FAED4C9D7F71D851.mvfrm
Library/Bee/artifacts/mvdfrm/UnityEngine.ImageConversionModule.dll_BF73FF8E51D0B48B.mvfrm
Library/Bee/artifacts/mvdfrm/UnityEngine.InputLegacyModule.dll_D6598F1680EE0BDD.mvfrm
Library/Bee/artifacts/mvdfrm/UnityEngine.InputModule.dll_290374E72F786914.mvfrm
Library/Bee/artifacts/mvdfrm/UnityEngine.JSONSerializeModule.dll_DF0A14D4E8CDAAE2.mvfrm
Library/Bee/artifacts/mvdfrm/UnityEngine.LocalizationModule.dll_BAB3895D094F5983.mvfrm
Library/Bee/artifacts/mvdfrm/UnityEngine.NVIDIAModule.dll_B251AC367A89CEC5.mvfrm
Library/Bee/artifacts/mvdfrm/UnityEngine.ParticleSystemModule.dll_E2E16306ED22E5FF.mvfrm
Library/Bee/artifacts/mvdfrm/UnityEngine.PerformanceReportingModule.dll_CA90332BE0C856F8.mvfrm
Library/Bee/artifacts/mvdfrm/UnityEngine.Physics2DModule.dll_89E8EF9FA9B5CA93.mvfrm
Library/Bee/artifacts/mvdfrm/UnityEngine.PhysicsModule.dll_0CFBDB81AA5DDD41.mvfrm
Library/Bee/artifacts/mvdfrm/UnityEngine.ProfilerModule.dll_434897888CF924A3.mvfrm
Library/Bee/artifacts/mvdfrm/UnityEngine.PropertiesModule.dll_78958F521EF3E28D.mvfrm
Library/Bee/artifacts/mvdfrm/UnityEngine.RuntimeInitializeOnLoadManagerInitializerModule.dll_E975E0128E90E15C.mvfrm
Library/Bee/artifacts/mvdfrm/UnityEngine.ScreenCaptureModule.dll_F8F1C259FD39D744.mvfrm
Library/Bee/artifacts/mvdfrm/UnityEngine.SharedInternalsModule.dll_43853E63C8FEAFDB.mvfrm
Library/Bee/artifacts/mvdfrm/UnityEngine.SpriteMaskModule.dll_3486C2A3CD7813CB.mvfrm
Library/Bee/artifacts/mvdfrm/UnityEngine.SpriteShapeModule.dll_5E75A1529E9E8DF6.mvfrm
Library/Bee/artifacts/mvdfrm/UnityEngine.StreamingModule.dll_F1D7ECFF58408A3C.mvfrm
Library/Bee/artifacts/mvdfrm/UnityEngine.SubstanceModule.dll_CE830148A393884A.mvfrm
Library/Bee/artifacts/mvdfrm/UnityEngine.SubsystemsModule.dll_9F3429059BBFFBDE.mvfrm
Library/Bee/artifacts/mvdfrm/UnityEngine.TLSModule.dll_5169525AAA4175D5.mvfrm
Library/Bee/artifacts/mvdfrm/UnityEngine.TerrainModule.dll_274256F0801C262F.mvfrm
Library/Bee/artifacts/mvdfrm/UnityEngine.TerrainPhysicsModule.dll_E35C0BDA0665E08C.mvfrm
Library/Bee/artifacts/mvdfrm/UnityEngine.TextCoreFontEngineModule.dll_E747B938C37D8697.mvfrm
Library/Bee/artifacts/mvdfrm/UnityEngine.TextCoreTextEngineModule.dll_2F2FEFAA53013FB5.mvfrm
Library/Bee/artifacts/mvdfrm/UnityEngine.TextRenderingModule.dll_22313464B4715739.mvfrm
Library/Bee/artifacts/mvdfrm/UnityEngine.TilemapModule.dll_C63EBE7197D90738.mvfrm
Library/Bee/artifacts/mvdfrm/UnityEngine.UIElementsModule.dll_A3728A6D9EEC37D5.mvfrm
Library/Bee/artifacts/mvdfrm/UnityEngine.UIModule.dll_3F2BF2DF29467C4E.mvfrm
Library/Bee/artifacts/mvdfrm/UnityEngine.UmbraModule.dll_3D62594F4666EFE3.mvfrm
Library/Bee/artifacts/mvdfrm/UnityEngine.UnityAnalyticsCommonModule.dll_65CEF06FFAB0F556.mvfrm
Library/Bee/artifacts/mvdfrm/UnityEngine.UnityAnalyticsModule.dll_0280D3D0994A37FB.mvfrm
Library/Bee/artifacts/mvdfrm/UnityEngine.UnityConnectModule.dll_EA29CE03BAD3946F.mvfrm
Library/Bee/artifacts/mvdfrm/UnityEngine.UnityCurlModule.dll_705FA0E078CCC4EB.mvfrm
Library/Bee/artifacts/mvdfrm/UnityEngine.UnityTestProtocolModule.dll_35CCA0753F604ED9.mvfrm
Library/Bee/artifacts/mvdfrm/UnityEngine.UnityWebRequestAssetBundleModule.dll_8B592BD7B8E35F0C.mvfrm
Library/Bee/artifacts/mvdfrm/UnityEngine.UnityWebRequestAudioModule.dll_428C870A67332190.mvfrm
Library/Bee/artifacts/mvdfrm/UnityEngine.UnityWebRequestModule.dll_D11307385CC54F0A.mvfrm
Library/Bee/artifacts/mvdfrm/UnityEngine.UnityWebRequestTextureModule.dll_E8AF58DC5E488965.mvfrm
Library/Bee/artifacts/mvdfrm/UnityEngine.UnityWebRequestWWWModule.dll_F9F2350642C0FC21.mvfrm
Library/Bee/artifacts/mvdfrm/UnityEngine.VFXModule.dll_D247EAC980AEDF42.mvfrm
Library/Bee/artifacts/mvdfrm/UnityEngine.VRModule.dll_91FE1964CB0101C6.mvfrm
Library/Bee/artifacts/mvdfrm/UnityEngine.VehiclesModule.dll_88C557D16DC96D31.mvfrm
Library/Bee/artifacts/mvdfrm/UnityEngine.VideoModule.dll_E79731A17BD26015.mvfrm
Library/Bee/artifacts/mvdfrm/UnityEngine.VirtualTexturingModule.dll_FAB9C5ECA310D697.mvfrm
Library/Bee/artifacts/mvdfrm/UnityEngine.WindModule.dll_3C758A2B9EB1C7A2.mvfrm
Library/Bee/artifacts/mvdfrm/UnityEngine.XRModule.dll_C4BCDC69543B4F24.mvfrm
Library/Bee/artifacts/mvdfrm/UnityEngine.dll_C7DC65683198BB0C.mvfrm
Library/Bee/artifacts/mvdfrm/Unity.Android.Gradle.dll_922787CCC9372EF6.mvfrm
Library/Bee/artifacts/mvdfrm/Unity.Android.GradleProject.dll_D064579986DBC21F.mvfrm
Library/Bee/artifacts/mvdfrm/Unity.Android.Types.dll_6FCF4C73D8D1B9A6.mvfrm
Library/Bee/artifacts/mvdfrm/UnityEditor.Android.Extensions.dll_13234B6C59F4D0F6.mvfrm
Library/Bee/artifacts/mvdfrm/UnityEditor.LinuxStandalone.Extensions.dll_C38171A1851E6F22.mvfrm
Library/Bee/artifacts/mvdfrm/Unity.Plastic.Antlr3.Runtime.dll_06567403B026473B.mvfrm
Library/Bee/artifacts/mvdfrm/Unity.Plastic.Newtonsoft.Json.dll_2AAE32905E8C08CA.mvfrm
Library/Bee/artifacts/mvdfrm/Unity.VisualScripting.IonicZip.dll_AFC4A1775743CCD8.mvfrm
Library/Bee/artifacts/mvdfrm/Unity.VisualScripting.YamlDotNet.dll_295D7F5050B34F24.mvfrm
Library/Bee/artifacts/mvdfrm/Unity.VisualScripting.TextureAssets.dll_C07BA8A41180AD1C.mvfrm
Library/Bee/artifacts/mvdfrm/Unity.VisualScripting.Antlr3.Runtime.dll_DACAA631817C5F43.mvfrm