Library/Bee/artifacts/mvdfrm/UnityEngine.UI.ref.dll_AFC2E85BC2EDBC0B.mvfrm
Library/Bee/artifacts/mvdfrm/UnityEngine.AIModule.dll_FE4DAF62451D409F.mvfrm
Library/Bee/artifacts/mvdfrm/UnityEngine.ARModule.dll_B7C07465A23A9F68.mvfrm
Library/Bee/artifacts/mvdfrm/UnityEngine.AccessibilityModule.dll_A2336625108CABEB.mvfrm
Library/Bee/artifacts/mvdfrm/UnityEngine.AndroidJNIModule.dll_F77CA49F341555DD.mvfrm
Library/Bee/artifacts/mvdfrm/UnityEngine.AnimationModule.dll_6D13C1E783B017D1.mvfrm
Library/Bee/artifacts/mvdfrm/UnityEngine.AssetBundleModule.dll_E4AF202DF6A3C31F.mvfrm
Library/Bee/artifacts/mvdfrm/UnityEngine.AudioModule.dll_6C990BF916699C83.mvfrm
Library/Bee/artifacts/mvdfrm/UnityEngine.ClothModule.dll_D38168F3F0867B67.mvfrm
Library/Bee/artifacts/mvdfrm/UnityEngine.ContentLoadModule.dll_7DC5796EC5266B0C.mvfrm
Library/Bee/artifacts/mvdfrm/UnityEngine.CoreModule.dll_7C7A31040AE9E4D6.mvfrm
Library/Bee/artifacts/mvdfrm/UnityEngine.CrashReportingModule.dll_6E8C0B370E6CDA2E.mvfrm
Library/Bee/artifacts/mvdfrm/UnityEngine.DSPGraphModule.dll_6496712EDD488994.mvfrm
Library/Bee/artifacts/mvdfrm/UnityEngine.DirectorModule.dll_5F450FC56AE7B873.mvfrm
Library/Bee/artifacts/mvdfrm/UnityEngine.GIModule.dll_9689F86FE0CC28B9.mvfrm
Library/Bee/artifacts/mvdfrm/UnityEngine.GameCenterModule.dll_21C9EEB9FA5646CE.mvfrm
Library/Bee/artifacts/mvdfrm/UnityEngine.GridModule.dll_59EB4CF2233E7ACD.mvfrm
Library/Bee/artifacts/mvdfrm/UnityEngine.HotReloadModule.dll_EE5C7FED5EE33353.mvfrm
Library/Bee/artifacts/mvdfrm/UnityEngine.IMGUIModule.dll_A4F8AB5FDC9B3064.mvfrm
Library/Bee/artifacts/mvdfrm/UnityEngine.ImageConversionModule.dll_67B1336AEE52567E.mvfrm
Library/Bee/artifacts/mvdfrm/UnityEngine.InputLegacyModule.dll_75F43B4C8E957910.mvfrm
Library/Bee/artifacts/mvdfrm/UnityEngine.InputModule.dll_D30ED3A98CA1C127.mvfrm
Library/Bee/artifacts/mvdfrm/UnityEngine.JSONSerializeModule.dll_024AEF610FC80C75.mvfrm
Library/Bee/artifacts/mvdfrm/UnityEngine.LocalizationModule.dll_A252F17C2CB6C3A0.mvfrm
Library/Bee/artifacts/mvdfrm/UnityEngine.ParticleSystemModule.dll_C19E54837C7E65BC.mvfrm
Library/Bee/artifacts/mvdfrm/UnityEngine.PerformanceReportingModule.dll_4BA8D8807C0FCF95.mvfrm
Library/Bee/artifacts/mvdfrm/UnityEngine.Physics2DModule.dll_B9B9B1D824AD0F66.mvfrm
Library/Bee/artifacts/mvdfrm/UnityEngine.PhysicsModule.dll_A706A0DD86E645B4.mvfrm
Library/Bee/artifacts/mvdfrm/UnityEngine.ProfilerModule.dll_918B48FC04413F80.mvfrm
Library/Bee/artifacts/mvdfrm/UnityEngine.PropertiesModule.dll_4F052DF86D41AB0A.mvfrm
Library/Bee/artifacts/mvdfrm/UnityEngine.RuntimeInitializeOnLoadManagerInitializerModule.dll_FBEA961630624C2F.mvfrm
Library/Bee/artifacts/mvdfrm/UnityEngine.ScreenCaptureModule.dll_1C329CE6243438D7.mvfrm
Library/Bee/artifacts/mvdfrm/UnityEngine.SharedInternalsModule.dll_EBC27240658051CE.mvfrm
Library/Bee/artifacts/mvdfrm/UnityEngine.SpriteMaskModule.dll_0AF6614A1BC5DC48.mvfrm
Library/Bee/artifacts/mvdfrm/UnityEngine.SpriteShapeModule.dll_FE104D88AC45FB29.mvfrm
Library/Bee/artifacts/mvdfrm/UnityEngine.StreamingModule.dll_21A8AF37D337CF0F.mvfrm
Library/Bee/artifacts/mvdfrm/UnityEngine.SubstanceModule.dll_FE53C3811E8ACD1D.mvfrm
Library/Bee/artifacts/mvdfrm/UnityEngine.SubsystemsModule.dll_75A3C7ABEA0DC45B.mvfrm
Library/Bee/artifacts/mvdfrm/UnityEngine.TLSModule.dll_949F3506C91A0988.mvfrm
Library/Bee/artifacts/mvdfrm/UnityEngine.TerrainModule.dll_C14D1C4C5CA48EA2.mvfrm
Library/Bee/artifacts/mvdfrm/UnityEngine.TerrainPhysicsModule.dll_C218FD5695C16049.mvfrm
Library/Bee/artifacts/mvdfrm/UnityEngine.TextCoreFontEngineModule.dll_967B6450A57A8D94.mvfrm
Library/Bee/artifacts/mvdfrm/UnityEngine.TextCoreTextEngineModule.dll_DE639AC234FE46B2.mvfrm
Library/Bee/artifacts/mvdfrm/UnityEngine.TextRenderingModule.dll_45720EF0DB6BB8CC.mvfrm
Library/Bee/artifacts/mvdfrm/UnityEngine.TilemapModule.dll_604983CD74616FAB.mvfrm
Library/Bee/artifacts/mvdfrm/UnityEngine.UIElementsModule.dll_79E22913ED3A0052.mvfrm
Library/Bee/artifacts/mvdfrm/UnityEngine.UIModule.dll_F9C14D8FA164464B.mvfrm
Library/Bee/artifacts/mvdfrm/UnityEngine.UmbraModule.dll_E76DB811A39047F6.mvfrm
Library/Bee/artifacts/mvdfrm/UnityEngine.UnityAnalyticsCommonModule.dll_E6E795C495F86DF3.mvfrm
Library/Bee/artifacts/mvdfrm/UnityEngine.UnityAnalyticsModule.dll_E13DC54D28A5B7B8.mvfrm
Library/Bee/artifacts/mvdfrm/UnityEngine.UnityConnectModule.dll_D1C93622DE3AFE8C.mvfrm
Library/Bee/artifacts/mvdfrm/UnityEngine.UnityCurlModule.dll_A0306318F3C409BE.mvfrm
Library/Bee/artifacts/mvdfrm/UnityEngine.UnityTestProtocolModule.dll_6B7FF5A60C5EFD2C.mvfrm
Library/Bee/artifacts/mvdfrm/UnityEngine.UnityWebRequestAssetBundleModule.dll_4219088E6BAEE489.mvfrm
Library/Bee/artifacts/mvdfrm/UnityEngine.UnityWebRequestAudioModule.dll_C3A52C5F027A9A2D.mvfrm
Library/Bee/artifacts/mvdfrm/UnityEngine.UnityWebRequestModule.dll_79503B14F946F0FD.mvfrm
Library/Bee/artifacts/mvdfrm/UnityEngine.UnityWebRequestTextureModule.dll_7A777DCC62EEE7A2.mvfrm
Library/Bee/artifacts/mvdfrm/UnityEngine.UnityWebRequestWWWModule.dll_A925E01E24BE031E.mvfrm
Library/Bee/artifacts/mvdfrm/UnityEngine.VFXModule.dll_157DCD759F8772F5.mvfrm
Library/Bee/artifacts/mvdfrm/UnityEngine.VRModule.dll_4C937415431ECBC3.mvfrm
Library/Bee/artifacts/mvdfrm/UnityEngine.VehiclesModule.dll_D7080944E511880E.mvfrm
Library/Bee/artifacts/mvdfrm/UnityEngine.VideoModule.dll_91A29063D8FBB828.mvfrm
Library/Bee/artifacts/mvdfrm/UnityEngine.WindModule.dll_F2C90C2C9C20633F.mvfrm
Library/Bee/artifacts/mvdfrm/UnityEngine.XRModule.dll_7F523719CC591921.mvfrm
Library/Bee/artifacts/mvdfrm/UnityEngine.dll_37209776319F6CDF.mvfrm
Library/Bee/artifacts/mvdfrm/Unity.VisualScripting.Antlr3.Runtime.dll_DACAA631817C5F43.mvfrm