<?xml version="1.0"?>
<COLLADA xmlns="http://www.collada.org/2005/11/COLLADASchema" version="1.4.1">
	<asset>
		<contributor>
			<author>Assimp</author>
			<authoring_tool>Assimp Exporter</authoring_tool>
		</contributor>
		<created>2023-10-30T23:18:12</created>
		<modified>2023-10-30T23:18:12</modified>
		<unit name="meter" meter="0.010000" />
		<up_axis>Y_UP</up_axis>
	</asset>
	<library_effects>
		<effect id="DefaultMaterial-fx" name="DefaultMaterial">
			<profile_COMMON>
				<technique sid="standard">
					<phong>
						<diffuse>
							<color sid="diffuse">0.600000   0.600000   0.600000   1.000000</color>
						</diffuse>
					</phong>
				</technique>
			</profile_COMMON>
		</effect>
	</library_effects>
	<library_materials>
		<material id="DefaultMaterial" name="DefaultMaterial">
			<instance_effect url="#DefaultMaterial-fx"/>
		</material>
	</library_materials>
	<library_geometries>
		<geometry id="meshId0" name="meshId0_name" >
			<mesh>
				<source id="meshId0-positions" name="meshId0-positions">
					<float_array id="meshId0-positions-array" count="1512"> 
						-36.391567 21.189209 18.946365 -37.564911 23.863571 15.540838 -37.027412 23.238079 8.293711 18.231722 0.035336 36.403614 18.648882 1.673058 37.144176 16.000135 0.022053 36.734005 25.467087 1.495285 -34.683083 26.948828 0.809017 -33.983650 24.986145 1.957226 -33.076057 -33.375950 47.249298 10.822357 -33.532448 48.546410 7.266476 -33.625473 47.829956 5.280361 -35.850952 50.685539 -15.379059 -34.107460 49.188202 -11.620361 -34.872009 52.907730 -7.201736 -33.728645 49.543251 4.299212 -33.625473 47.829956 5.280361 -33.532448 48.546410 7.266476 2.122762 4.203197 -47.644981 4.876122 3.247505 -46.268715 2.788705 -0.056572 -44.564880 -1.656099 6.953812 -49.188892 -3.114357 6.100796 -49.017563 -2.625109 14.993172 -47.826679 -37.564911 23.863571 15.540838 -39.293404 26.355778 10.229685 -37.027412 23.238079 8.293711 -6.044063 8.584496 -48.828403 -6.053607 14.019234 -50.059151 -2.625109 14.993172 -47.826679 -16.930923 60.678459 29.803185 -19.347893 58.072151 28.511963 -15.494154 58.761806 30.727158 -18.230732 -0.181702 35.017159 -19.861259 2.315620 34.424309 -19.916204 -0.191734 32.524769 20.903620 0.051250 -32.075596 16.626978 0.025799 -33.347359 19.725681 1.526302 -32.685467 -34.572678 48.046951 -8.248676 -33.757992 50.375633 -3.013934 -34.107460 49.188202 -11.620361 -37.742191 43.765244 -12.855801 -38.411087 40.339058 -7.423891 -36.827435 44.892639 -4.714184 -34.224541 7.848507 29.541298 -31.855867 3.330345 28.045105 -29.840351 5.626316 31.466412 -34.035862 50.165802 1.875688 -34.510899 47.128933 -1.427162 -33.625473 47.829956 5.280361 -33.728645 49.543251 4.299212 -2.125725 78.763733 14.705790 0.769486 77.386948 15.647600 -1.203677 78.963783 12.838572 15.177812 0.017170 -34.271439 18.223898 2.161419 -34.214142 19.725681 1.526302 -32.685467 16.626978 0.025799 -33.347359 -39.042812 37.910240 -2.004928 -36.827435 44.892639 -4.714184 -38.411087 40.339058 -7.423891 -34.572678 48.046951 -8.248676 -36.827435 44.892639 -4.714184 
						-34.510899 47.128933 -1.427162 -33.757992 50.375633 -3.013934 -37.287403 44.458191 -17.134882 -34.572678 48.046951 -8.248676 -36.251469 46.385132 -17.454710 -34.293121 55.889164 -12.476116 -35.850952 50.685539 -15.379059 -34.872009 52.907730 -7.201736 -34.890919 53.536095 -8.748594 -34.510899 47.128933 -1.427162 -36.827435 44.892639 -4.714184 -33.625473 47.829956 5.280361 -3.114357 6.100796 -49.017563 -8.322037 -0.122707 -48.635788 -6.044063 8.584496 -48.828403 -3.339118 80.155167 8.625004 -1.203677 78.963783 12.838572 -1.049884 80.100258 11.802130 25.467087 1.495285 -34.683083 24.986145 1.957226 -33.076057 22.516891 1.816242 -36.326263 -39.580502 23.273151 -1.892486 -40.574635 19.213287 6.550137 -37.027412 23.238079 8.293711 -37.443985 20.404133 17.523344 -36.391567 21.189209 18.946365 -37.027412 23.238079 8.293711 -39.816444 19.109852 14.071753 -34.035862 50.165802 1.875688 -33.757992 50.375633 -3.013934 -34.510899 47.128933 -1.427162 -3.114357 6.100796 -49.017563 -6.044063 8.584496 -48.828403 -2.625109 14.993172 -47.826679 44.985073 0.194584 18.871134 41.731953 0.175224 25.579731 40.785080 0.169586 27.335617 23.062710 0.064095 35.315933 18.231722 0.035336 36.403614 16.000135 0.022053 36.734005 15.166862 0.017094 38.871410 7.728590 -0.027187 42.220837 -18.230732 -0.181702 35.017159 -19.916204 -0.191734 32.524769 -25.695717 -0.226135 30.455536 -30.142094 -0.252602 26.060646 -33.304005 -0.271420 23.381302 -42.108456 -0.323826 14.824373 -37.720673 -0.297707 -28.844156 -31.392658 -0.260036 -33.959549 -29.430412 -0.248356 -33.947533 -28.194029 -0.240997 -36.545235 -12.382351 -0.146877 -49.328243 -8.322037 -0.122707 -48.635788 2.788705 -0.056572 -44.564880 4.555948 -0.046055 -44.003368 12.164430 -0.000767 -41.090382 14.083867 0.010658 -39.814713 15.177812 0.017170 -34.271439 16.626978 0.025799 -33.347359 20.903620 0.051250 -32.075596 24.576324 0.073112 -31.268116 27.714348 0.091789 -31.272141 29.441505 0.102074 -32.699753 
						46.368324 0.202824 -22.806316 -37.027412 23.238079 8.293711 -39.293404 26.355778 10.229685 -37.402176 27.544346 3.587722 -37.484211 40.170807 7.324242 -35.353935 44.677704 8.709507 -36.827435 44.892639 -4.714184 -35.353935 44.677704 8.709507 -33.625473 47.829956 5.280361 -36.827435 44.892639 -4.714184 -39.510433 26.987717 -1.260104 -39.331215 25.841881 -3.454405 -38.297016 25.772129 -0.971777 -34.107460 49.188202 -11.620361 -33.757992 50.375633 -3.013934 -34.872009 52.907730 -7.201736 -33.757992 50.375633 -3.013934 -34.035862 50.165802 1.875688 -34.872009 52.907730 -7.201736 -9.519813 82.477310 -4.583889 -11.979236 81.914200 -5.205630 -10.910198 82.297440 -2.811631 -11.979236 81.914200 -5.205630 -9.519813 82.477310 -4.583889 -9.735457 82.044113 -6.387586 -13.317924 81.164429 -7.564180 22.029819 89.165863 3.465394 17.372713 88.794395 2.595729 17.785225 88.386490 4.109777 -9.519813 82.477310 -4.583889 -10.910198 82.297440 -2.811631 -8.618333 81.893013 0.118097 -3.339118 80.155167 8.625004 -3.452085 79.772446 10.702080 -2.125725 78.763733 14.705790 -1.203677 78.963783 12.838572 -3.339118 80.155167 8.625004 -4.764040 80.615440 7.183697 -3.452085 79.772446 10.702080 -9.735457 82.044113 -6.387586 -9.519813 82.477310 -4.583889 -8.197473 83.382462 -3.625217 -8.618333 81.893013 0.118097 -8.197473 83.382462 -3.625217 -9.519813 82.477310 -4.583889 -20.677595 51.921093 30.452614 -21.104549 48.439537 31.496197 -19.113914 50.689274 31.923290 -19.916204 -0.191734 32.524769 -21.813755 2.595074 33.866192 -26.098745 3.012993 32.652279 -25.695717 -0.226135 30.455536 -25.695717 -0.226135 30.455536 -26.098745 3.012993 32.652279 -29.840351 5.626316 31.466412 -31.855867 3.330345 28.045105 18.231722 0.035336 36.403614 23.062710 0.064095 35.315933 20.001152 2.264236 36.478447 18.648882 1.673058 37.144176 16.000135 0.022053 36.734005 18.648882 1.673058 37.144176 15.166862 0.017094 38.871410 0.751564 79.828430 14.104824 
						17.785225 88.386490 4.109777 17.372713 88.794395 2.595729 -8.197473 83.382462 -3.625217 -8.618333 81.893013 0.118097 -10.910198 82.297440 -2.811631 -9.346157 75.059700 19.163408 -2.125725 78.763733 14.705790 -3.452085 79.772446 10.702080 -4.764040 80.615440 7.183697 -3.339118 80.155167 8.625004 -1.049884 80.100258 11.802130 -1.203677 78.963783 12.838572 -33.375950 47.249298 10.822357 -20.385824 55.836624 28.952171 -19.347893 58.072151 28.511963 -16.930923 60.678459 29.803185 -9.346157 75.059700 19.163408 -10.910198 82.297440 -2.811631 -11.979236 81.914200 -5.205630 -13.317924 81.164429 -7.564180 -22.735237 72.487488 -16.096439 -33.020966 58.503529 -14.739784 -34.015297 57.196663 -14.715183 -34.293121 55.889164 -12.476116 -34.890919 53.536095 -8.748594 -34.872009 52.907730 -7.201736 -34.035862 50.165802 1.875688 -33.728645 49.543251 4.299212 -33.532448 48.546410 7.266476 -20.385824 55.836624 28.952171 -14.881475 56.731575 31.889412 -15.494154 58.761806 30.727158 31.521845 50.260597 26.621880 -14.393348 54.816772 33.003696 5.549517 38.248943 39.472176 -20.385824 55.836624 28.952171 -15.494154 58.761806 30.727158 -19.347893 58.072151 28.511963 -1.203677 78.963783 12.838572 0.769486 77.386948 15.647600 0.751564 79.828430 14.104824 7.728590 -0.027187 42.220837 5.549517 38.248943 39.472176 -14.393348 54.816772 33.003696 -19.113914 50.689274 31.923290 -21.104549 48.439537 31.496197 -34.224541 7.848507 29.541298 -29.840351 5.626316 31.466412 -26.098745 3.012993 32.652279 -21.813755 2.595074 33.866192 -19.861259 2.315620 34.424309 -18.230732 -0.181702 35.017159 -19.113914 50.689274 31.923290 -14.393348 54.816772 33.003696 -14.881475 56.731575 31.889412 -20.385824 55.836624 28.952171 -20.677595 51.921093 30.452614 -37.027412 23.238079 8.293711 -41.224815 17.551762 12.427481 -39.816444 19.109852 14.071753 -31.855867 3.330345 28.045105 -36.618572 6.465168 26.097912 -39.381729 4.821449 22.147758 -31.855867 3.330345 28.045105 
						-34.224541 7.848507 29.541298 -36.618572 6.465168 26.097912 -33.625473 47.829956 5.280361 -35.353935 44.677704 8.709507 -33.375950 47.249298 10.822357 -40.574635 19.213287 6.550137 -41.224815 17.551762 12.427481 -37.027412 23.238079 8.293711 -39.816921 34.189461 4.368908 -40.095623 32.715359 6.615477 -39.450558 34.681969 6.726503 -36.391567 21.189209 18.946365 -36.641937 22.340405 17.922197 -37.564911 23.863571 15.540838 -39.293404 26.355778 10.229685 -40.351082 29.284912 7.930315 -40.072990 29.894478 5.380323 -37.402176 27.544346 3.587722 -37.402176 27.544346 3.587722 -40.072990 29.894478 5.380323 -39.510433 26.987717 -1.260104 -38.297016 25.772129 -0.971777 -37.027412 23.238079 8.293711 -37.402176 27.544346 3.587722 -38.297016 25.772129 -0.971777 -39.580502 23.273151 -1.892486 -38.297016 25.772129 -0.971777 -39.331215 25.841881 -3.454405 -39.580502 23.273151 -1.892486 -36.827435 44.892639 -4.714184 -39.042812 37.910240 -2.004928 -39.816921 34.189461 4.368908 -39.450558 34.681969 6.726503 -37.484211 40.170807 7.324242 -36.827435 44.892639 -4.714184 -34.572678 48.046951 -8.248676 -37.287403 44.458191 -17.134882 -37.742191 43.765244 -12.855801 -22.735237 72.487488 -16.096439 -20.955326 60.653107 -25.999485 -35.415382 52.407749 -16.509026 -34.015297 57.196663 -14.715183 -33.020966 58.503529 -14.739784 -34.015297 57.196663 -14.715183 -35.415382 52.407749 -16.509026 -35.850952 50.685539 -15.379059 -34.293121 55.889164 -12.476116 -34.107460 49.188202 -11.620361 -35.850952 50.685539 -15.379059 -36.112835 49.303967 -16.780468 -36.251469 46.385132 -17.454710 -6.053607 14.019234 -50.059151 -6.044063 8.584496 -48.828403 -8.957799 8.485405 -49.774647 -6.918617 12.688164 -50.293835 -34.107460 49.188202 -11.620361 -36.251469 46.385132 -17.454710 -34.572678 48.046951 -8.248676 -6.044063 8.584496 -48.828403 -8.322037 -0.122707 -48.635788 -9.766009 5.946243 -49.804241 -8.957799 8.485405 -49.774647 -29.430412 -0.248356 -33.947533 -29.349981 1.695194 -35.087204 
						-28.194029 -0.240997 -36.545235 22.029819 89.165863 3.465394 29.454386 63.654148 -17.457497 -5.979206 36.888985 -44.533424 -20.955326 60.653107 -25.999485 -22.735237 72.487488 -16.096439 -13.317924 81.164429 -7.564180 -9.735457 82.044113 -6.387586 -8.197473 83.382462 -3.625217 17.372713 88.794395 2.595729 -3.114357 6.100796 -49.017563 -1.656099 6.953812 -49.188892 -0.541109 4.924557 -49.025242 -8.322037 -0.122707 -48.635788 2.788705 -0.056572 -44.564880 4.876122 3.247505 -46.268715 14.738737 1.129154 -41.026077 14.083867 0.010658 -39.814713 14.738737 1.129154 -41.026077 18.334366 0.993973 -38.962029 18.223898 2.161419 -34.214142 20.127590 1.812981 -37.720142 22.516891 1.816242 -36.326263 24.986145 1.957226 -33.076057 19.725681 1.526302 -32.685467 -8.322037 -0.122707 -48.635788 -0.541109 4.924557 -49.025242 2.122762 4.203197 -47.644981 2.788705 -0.056572 -44.564880 29.441505 0.102074 -32.699753 27.714348 0.091789 -31.272141 24.986145 1.957226 -33.076057 26.948828 0.809017 -33.983650 -35.850952 50.685539 -15.379059 -35.415382 52.407749 -16.509026 -20.955326 60.653107 -25.999485 -5.979206 36.888985 -44.533424 -6.053607 14.019234 -50.059151 -6.918617 12.688164 -50.293835 -8.957799 8.485405 -49.774647 -9.766009 5.946243 -49.804241 -12.382351 -0.146877 -49.328243 -28.194029 -0.240997 -36.545235 -29.349981 1.695194 -35.087204 -31.392658 -0.260036 -33.959549 -37.720673 -0.297707 -28.844156 -37.287403 44.458191 -17.134882 -36.251469 46.385132 -17.454710 -36.112835 49.303967 -16.780468 -37.287403 44.458191 -17.134882 -37.720673 -0.297707 -28.844156 -42.108456 -0.323826 14.824373 -42.187073 1.188881 16.148449 -42.290413 3.242096 17.912201 -41.224815 17.551762 12.427481 -40.574635 19.213287 6.550137 -39.580502 23.273151 -1.892486 -39.331215 25.841881 -3.454405 -39.510433 26.987717 -1.260104 -40.072990 29.894478 5.380323 -40.351082 29.284912 7.930315 -40.095623 32.715359 6.615477 -39.816921 34.189461 4.368908 -39.042812 37.910240 -2.004928 
						-38.411087 40.339058 -7.423891 -37.742191 43.765244 -12.855801 23.062710 0.064095 35.315933 40.785080 0.169586 27.335617 43.009830 2.978611 26.061470 31.521845 50.260597 26.621880 5.549517 38.248943 39.472176 7.728590 -0.027187 42.220837 15.166862 0.017094 38.871410 18.648882 1.673058 37.144176 20.001152 2.264236 36.478447 29.454386 63.654148 -17.457497 22.029819 89.165863 3.465394 31.521845 50.260597 26.621880 43.936096 3.425140 24.793587 43.009830 2.978611 26.061470 40.785080 0.169586 27.335617 41.731953 0.175224 25.579731 44.286530 2.320698 23.015179 44.286530 2.320698 23.015179 41.731953 0.175224 25.579731 44.985073 0.194584 18.871134 -31.855867 3.330345 28.045105 -33.304005 -0.271420 23.381302 -30.142094 -0.252602 26.060646 18.223898 2.161419 -34.214142 14.083867 0.010658 -39.814713 18.334366 0.993973 -38.962029 20.127590 1.812981 -37.720142 2.788705 -0.056572 -44.564880 14.738737 1.129154 -41.026077 12.164430 -0.000767 -41.090382 4.555948 -0.046055 -44.003368 14.738737 1.129154 -41.026077 14.083867 0.010658 -39.814713 12.164430 -0.000767 -41.090382 19.725681 1.526302 -32.685467 24.986145 1.957226 -33.076057 27.714348 0.091789 -31.272141 24.576324 0.073112 -31.268116 19.725681 1.526302 -32.685467 24.576324 0.073112 -31.268116 20.903620 0.051250 -32.075596 18.223898 2.161419 -34.214142 15.177812 0.017170 -34.271439 14.083867 0.010658 -39.814713 -31.855867 3.330345 28.045105 -30.142094 -0.252602 26.060646 -25.695717 -0.226135 30.455536 -31.855867 3.330345 28.045105 -39.381729 4.821449 22.147758 -42.290413 3.242096 17.912201 -42.187073 1.188881 16.148449 -42.108456 -0.323826 14.824373 -33.304005 -0.271420 23.381302 -19.861259 2.315620 34.424309 -21.813755 2.595074 33.866192 -19.916204 -0.191734 32.524769 -29.349981 1.695194 -35.087204 -29.430412 -0.248356 -33.947533 -31.392658 -0.260036 -33.959549 -8.322037 -0.122707 -48.635788 -12.382351 -0.146877 -49.328243 -9.766009 5.946243 -49.804241 
						-34.224541 7.848507 29.541298 -21.104549 48.439537 31.496197 -20.677595 51.921093 30.452614 -20.385824 55.836624 28.952171 -33.375950 47.249298 10.822357 -35.353935 44.677704 8.709507 -37.484211 40.170807 7.324242 -39.450558 34.681969 6.726503 -40.095623 32.715359 6.615477 -40.351082 29.284912 7.930315 -39.293404 26.355778 10.229685 -37.564911 23.863571 15.540838 -36.641937 22.340405 17.922197 -36.391567 21.189209 18.946365 -37.443985 20.404133 17.523344 -39.816444 19.109852 14.071753 -41.224815 17.551762 12.427481 -42.290413 3.242096 17.912201 -39.381729 4.821449 22.147758 -36.618572 6.465168 26.097912 -2.625109 14.993172 -47.826679 -6.053607 14.019234 -50.059151 -5.979206 36.888985 -44.533424 29.454386 63.654148 -17.457497 46.368324 0.202824 -22.806316 29.441505 0.102074 -32.699753 26.948828 0.809017 -33.983650 25.467087 1.495285 -34.683083 22.516891 1.816242 -36.326263 20.127590 1.812981 -37.720142 18.334366 0.993973 -38.962029 14.738737 1.129154 -41.026077 4.876122 3.247505 -46.268715 2.122762 4.203197 -47.644981 -0.541109 4.924557 -49.025242 -1.656099 6.953812 -49.188892 17.785225 88.386490 4.109777 0.751564 79.828430 14.104824 0.769486 77.386948 15.647600 -2.125725 78.763733 14.705790 -9.346157 75.059700 19.163408 -16.930923 60.678459 29.803185 -15.494154 58.761806 30.727158 -14.881475 56.731575 31.889412 -14.393348 54.816772 33.003696 31.521845 50.260597 26.621880 22.029819 89.165863 3.465394 46.368324 0.202824 -22.806316 29.454386 63.654148 -17.457497 31.521845 50.260597 26.621880 44.985073 0.194584 18.871134 46.368324 0.202824 -22.806316 31.521845 50.260597 26.621880 43.009830 2.978611 26.061470 43.936096 3.425140 24.793587 44.286530 2.320698 23.015179 
					</float_array>
					<technique_common>
						<accessor count="504" offset="0" source="#meshId0-positions-array" stride="3">
							<param name="X" type="float" />
							<param name="Y" type="float" />
							<param name="Z" type="float" />
						</accessor>
					</technique_common>
				</source>
				<source id="meshId0-normals" name="meshId0-normals">
					<float_array id="meshId0-normals-array" count="1512"> 
						-0.900995 -0.432826 -0.029468 -0.900995 -0.432826 -0.029468 -0.900995 -0.432826 -0.029468 0.134310 -0.436491 0.889627 0.134310 -0.436491 0.889627 0.134310 -0.436491 0.889627 -0.461564 -0.879657 0.114723 -0.461564 -0.879657 0.114723 -0.461564 -0.879657 0.114723 -0.998962 0.003892 0.045386 -0.998962 0.003892 0.045386 -0.998962 0.003892 0.045386 -0.866797 -0.445147 0.224738 -0.866797 -0.445147 0.224738 -0.866797 -0.445147 0.224738 -0.998008 -0.027625 0.056710 -0.998008 -0.027625 0.056710 -0.998008 -0.027625 0.056710 0.212449 -0.550537 -0.807325 0.212449 -0.550537 -0.807325 0.212449 -0.550537 -0.807325 -0.196345 0.140758 -0.970379 -0.196345 0.140758 -0.970379 -0.196345 0.140758 -0.970379 -0.811761 -0.583908 -0.009810 -0.811761 -0.583908 -0.009810 -0.811761 -0.583908 -0.009810 0.572170 -0.180184 -0.800097 0.572170 -0.180184 -0.800097 0.572170 -0.180184 -0.800097 -0.503206 0.038956 0.863288 -0.503206 0.038956 0.863288 -0.503206 0.038956 0.863288 -0.766522 -0.377055 0.519878 -0.766522 -0.377055 0.519878 -0.766522 -0.377055 0.519878 0.282011 -0.165523 -0.945025 0.282011 -0.165523 -0.945025 0.282011 -0.165523 -0.945025 -0.936334 0.350958 -0.010401 -0.936334 0.350958 -0.010401 -0.936334 0.350958 -0.010401 -0.954060 0.292085 0.066749 -0.954060 0.292085 0.066749 -0.954060 0.292085 0.066749 -0.548910 -0.507671 0.664055 -0.548910 -0.507671 0.664055 -0.548910 -0.507671 0.664055 -0.991491 0.014382 0.129379 -0.991491 0.014382 0.129379 -0.991491 0.014382 0.129379 -0.991491 0.014382 0.129379 0.342224 0.901311 0.265560 0.342224 0.901311 0.265560 0.342224 0.901311 0.265560 0.433522 -0.597836 -0.674279 0.433522 -0.597836 -0.674279 0.433522 -0.597836 -0.674279 0.433522 -0.597836 -0.674279 -0.949409 0.312658 0.029456 -0.949409 0.312658 0.029456 -0.949409 0.312658 0.029456 -0.879614 0.470321 0.071260 -0.879614 0.470321 0.071260 
						-0.879614 0.470321 0.071260 -0.879614 0.470321 0.071260 -0.873421 0.481562 0.072346 -0.873421 0.481562 0.072346 -0.873421 0.481562 0.072346 -0.968260 0.247659 0.033723 -0.968260 0.247659 0.033723 -0.968260 0.247659 0.033723 -0.968260 0.247659 0.033723 -0.708861 0.705068 0.019886 -0.708861 0.705068 0.019886 -0.708861 0.705068 0.019886 -0.068036 -0.004271 -0.997674 -0.068036 -0.004271 -0.997674 -0.068036 -0.004271 -0.997674 -0.676097 0.544351 0.496563 -0.676097 0.544351 0.496563 -0.676097 0.544351 0.496563 -0.219668 -0.953093 0.208229 -0.219668 -0.953093 0.208229 -0.219668 -0.953093 0.208229 -0.776257 0.598969 0.196624 -0.776257 0.598969 0.196624 -0.776257 0.598969 0.196624 -0.688335 0.701576 0.184351 -0.688335 0.701576 0.184351 -0.688335 0.701576 0.184351 -0.688335 0.701576 0.184351 -0.977874 0.203885 -0.046822 -0.977874 0.203885 -0.046822 -0.977874 0.203885 -0.046822 0.046338 0.130090 -0.990419 0.046338 0.130090 -0.990419 0.046338 0.130090 -0.990419 0.005952 -0.999982 -0.000000 0.005952 -0.999982 -0.000000 0.005952 -0.999982 -0.000000 0.005952 -0.999982 -0.000000 0.005952 -0.999982 -0.000000 0.005952 -0.999982 -0.000000 0.005952 -0.999982 -0.000000 0.005952 -0.999982 -0.000000 0.005952 -0.999982 -0.000000 0.005952 -0.999982 -0.000000 0.005952 -0.999982 -0.000000 0.005952 -0.999982 -0.000000 0.005952 -0.999982 -0.000000 0.005952 -0.999982 -0.000000 0.005952 -0.999982 -0.000000 0.005952 -0.999982 -0.000000 0.005952 -0.999982 -0.000000 0.005952 -0.999982 -0.000000 0.005952 -0.999982 -0.000000 0.005952 -0.999982 -0.000000 0.005952 -0.999982 -0.000000 0.005952 -0.999982 -0.000000 0.005952 -0.999982 -0.000000 0.005952 -0.999982 -0.000000 0.005952 -0.999982 -0.000000 0.005952 -0.999982 -0.000000 0.005952 -0.999982 -0.000000 0.005952 -0.999982 -0.000000 0.005952 -0.999982 -0.000000 0.005952 -0.999982 -0.000000 
						0.005952 -0.999982 -0.000000 -0.849906 -0.420702 -0.317285 -0.849906 -0.420702 -0.317285 -0.849906 -0.420702 -0.317285 -0.911198 0.397994 0.106393 -0.911198 0.397994 0.106393 -0.911198 0.397994 0.106393 -0.823002 0.559292 0.099295 -0.823002 0.559292 0.099295 -0.823002 0.559292 0.099295 -0.711963 -0.644640 0.278474 -0.711963 -0.644640 0.278474 -0.711963 -0.644640 0.278474 -0.953923 -0.289551 0.078684 -0.953923 -0.289551 0.078684 -0.953923 -0.289551 0.078684 -0.864849 -0.497061 -0.070478 -0.864849 -0.497061 -0.070478 -0.864849 -0.497061 -0.070478 -0.207415 0.976180 -0.063647 -0.207415 0.976180 -0.063647 -0.207415 0.976180 -0.063647 -0.167075 0.963032 -0.211317 -0.167075 0.963032 -0.211317 -0.167075 0.963032 -0.211317 -0.167075 0.963032 -0.211317 -0.129908 0.947929 0.290782 -0.129908 0.947929 0.290782 -0.129908 0.947929 0.290782 0.023159 0.992635 0.118911 0.023159 0.992635 0.118911 0.023159 0.992635 0.118911 0.169790 0.967478 0.187503 0.169790 0.967478 0.187503 0.169790 0.967478 0.187503 0.169790 0.967478 0.187503 0.126194 0.974337 0.186394 0.126194 0.974337 0.186394 0.126194 0.974337 0.186394 -0.482332 0.863115 -0.149628 -0.482332 0.863115 -0.149628 -0.482332 0.863115 -0.149628 -0.653115 0.725969 0.215430 -0.653115 0.725969 0.215430 -0.653115 0.725969 0.215430 -0.514962 0.303459 0.801703 -0.514962 0.303459 0.801703 -0.514962 0.303459 0.801703 -0.275654 -0.562798 0.779278 -0.275654 -0.562798 0.779278 -0.275654 -0.562798 0.779278 -0.275654 -0.562798 0.779278 -0.555374 -0.507146 0.659062 -0.555374 -0.507146 0.659062 -0.555374 -0.507146 0.659062 -0.555374 -0.507146 0.659062 0.287456 -0.259157 0.922067 0.287456 -0.259157 0.922067 0.287456 -0.259157 0.922067 0.287456 -0.259157 0.922067 0.497543 -0.845922 0.192006 0.497543 -0.845922 0.192006 0.497543 -0.845922 0.192006 -0.273675 0.906655 0.321058 
						-0.273675 0.906655 0.321058 -0.273675 0.906655 0.321058 -0.273675 0.906655 0.321058 -0.273675 0.906655 0.321058 -0.273675 0.906655 0.321058 -0.273675 0.906655 0.321058 -0.273675 0.906655 0.321058 -0.273675 0.906655 0.321058 -0.273675 0.906655 0.321058 -0.273675 0.906655 0.321058 -0.273675 0.906655 0.321058 -0.273675 0.906655 0.321058 -0.769643 0.586977 0.251211 -0.769643 0.586977 0.251211 -0.769643 0.586977 0.251211 -0.769643 0.586977 0.251211 -0.769643 0.586977 0.251211 -0.769643 0.586977 0.251211 -0.769643 0.586977 0.251211 -0.769643 0.586977 0.251211 -0.769643 0.586977 0.251211 -0.769643 0.586977 0.251211 -0.769643 0.586977 0.251211 -0.769643 0.586977 0.251211 -0.769643 0.586977 0.251211 -0.769643 0.586977 0.251211 -0.769643 0.586977 0.251211 -0.769643 0.586977 0.251211 -0.769643 0.586977 0.251211 -0.486037 0.319091 0.813602 -0.486037 0.319091 0.813602 -0.486037 0.319091 0.813602 0.168090 0.527469 0.832780 0.168090 0.527469 0.832780 0.168090 0.527469 0.832780 -0.510512 0.388117 0.767295 -0.510512 0.388117 0.767295 -0.510512 0.388117 0.767295 -0.616773 0.417241 0.667459 -0.616773 0.417241 0.667459 -0.616773 0.417241 0.667459 -0.274117 0.055264 0.960107 -0.274117 0.055264 0.960107 -0.274117 0.055264 0.960107 -0.274117 0.055264 0.960107 -0.274117 0.055264 0.960107 -0.274117 0.055264 0.960107 -0.274117 0.055264 0.960107 -0.274117 0.055264 0.960107 -0.274117 0.055264 0.960107 -0.274117 0.055264 0.960107 -0.274117 0.055264 0.960107 -0.484967 0.344211 0.803944 -0.484967 0.344211 0.803944 -0.484967 0.344211 0.803944 -0.484967 0.344211 0.803944 -0.484967 0.344211 0.803944 -0.776640 0.625790 0.072226 -0.776640 0.625790 0.072226 -0.776640 0.625790 0.072226 -0.591022 -0.509458 0.625416 -0.591022 -0.509458 0.625416 -0.591022 -0.509458 0.625416 -0.592440 -0.515580 0.619025 
						-0.592440 -0.515580 0.619025 -0.592440 -0.515580 0.619025 -0.825391 0.556432 0.095462 -0.825391 0.556432 0.095462 -0.825391 0.556432 0.095462 -0.766827 0.634839 0.094639 -0.766827 0.634839 0.094639 -0.766827 0.634839 0.094639 -0.948267 0.306333 0.083364 -0.948267 0.306333 0.083364 -0.948267 0.306333 0.083364 -0.839261 0.247966 0.483894 -0.839261 0.247966 0.483894 -0.839261 0.247966 0.483894 -0.767589 -0.570207 -0.292696 -0.767589 -0.570207 -0.292696 -0.767589 -0.570207 -0.292696 -0.767589 -0.570207 -0.292696 -0.564744 -0.755393 0.332335 -0.564744 -0.755393 0.332335 -0.564744 -0.755393 0.332335 -0.564744 -0.755393 0.332335 -0.952125 0.235539 0.194884 -0.952125 0.235539 0.194884 -0.952125 0.235539 0.194884 -0.952125 0.235539 0.194884 -0.874030 0.311535 0.372851 -0.874030 0.311535 0.372851 -0.874030 0.311535 0.372851 -0.941228 0.328740 0.077591 -0.941228 0.328740 0.077591 -0.941228 0.328740 0.077591 -0.941228 0.328740 0.077591 -0.941228 0.328740 0.077591 -0.808502 0.588419 0.009359 -0.808502 0.588419 0.009359 -0.808502 0.588419 0.009359 -0.808502 0.588419 0.009359 -0.655500 0.427316 -0.622672 -0.655500 0.427316 -0.622672 -0.655500 0.427316 -0.622672 -0.655500 0.427316 -0.622672 -0.655500 0.427316 -0.622672 -0.962802 0.267682 0.036846 -0.962802 0.267682 0.036846 -0.962802 0.267682 0.036846 -0.962802 0.267682 0.036846 -0.929222 -0.086820 0.359177 -0.929222 -0.086820 0.359177 -0.929222 -0.086820 0.359177 -0.929222 -0.086820 0.359177 0.371435 -0.241029 -0.896628 0.371435 -0.241029 -0.896628 0.371435 -0.241029 -0.896628 0.371435 -0.241029 -0.896628 -0.849412 0.524278 0.060258 -0.849412 0.524278 0.060258 -0.849412 0.524278 0.060258 0.318778 -0.101139 -0.942418 0.318778 -0.101139 -0.942418 0.318778 -0.101139 -0.942418 0.318778 -0.101139 -0.942418 -0.882551 -0.210138 -0.420649 -0.882551 -0.210138 -0.420649 
						-0.882551 -0.210138 -0.420649 0.087135 0.652202 -0.753020 0.087135 0.652202 -0.753020 0.087135 0.652202 -0.753020 0.087135 0.652202 -0.753020 0.087135 0.652202 -0.753020 0.087135 0.652202 -0.753020 0.087135 0.652202 -0.753020 0.087135 0.652202 -0.753020 0.087135 0.652202 -0.753020 -0.027013 -0.052579 -0.998251 -0.027013 -0.052579 -0.998251 -0.027013 -0.052579 -0.998251 -0.027013 -0.052579 -0.998251 0.284229 -0.575138 -0.767092 0.284229 -0.575138 -0.767092 0.284229 -0.575138 -0.767092 0.291698 -0.776179 -0.558980 0.291698 -0.776179 -0.558980 0.291698 -0.776179 -0.558980 -0.022835 -0.998791 -0.043522 -0.022835 -0.998791 -0.043522 -0.022835 -0.998791 -0.043522 -0.022835 -0.998791 -0.043522 -0.022835 -0.998791 -0.043522 0.292249 -0.522111 -0.801243 0.292249 -0.522111 -0.801243 0.292249 -0.522111 -0.801243 0.292249 -0.522111 -0.801243 -0.370729 -0.918392 -0.138259 -0.370729 -0.918392 -0.138259 -0.370729 -0.918392 -0.138259 -0.370729 -0.918392 -0.138259 -0.614548 0.205332 -0.761689 -0.614548 0.205332 -0.761689 -0.614548 0.205332 -0.761689 -0.614548 0.205332 -0.761689 -0.614548 0.205332 -0.761689 -0.614548 0.205332 -0.761689 -0.614548 0.205332 -0.761689 -0.614548 0.205332 -0.761689 -0.614548 0.205332 -0.761689 -0.614548 0.205332 -0.761689 -0.614548 0.205332 -0.761689 -0.614548 0.205332 -0.761689 -0.614548 0.205332 -0.761689 -0.614548 0.205332 -0.761689 -0.614548 0.205332 -0.761689 -0.614548 0.205332 -0.761689 -0.994355 0.035760 -0.099891 -0.994355 0.035760 -0.099891 -0.994355 0.035760 -0.099891 -0.994355 0.035760 -0.099891 -0.994355 0.035760 -0.099891 -0.994355 0.035760 -0.099891 -0.994355 0.035760 -0.099891 -0.994355 0.035760 -0.099891 -0.994355 0.035760 -0.099891 -0.994355 0.035760 -0.099891 -0.994355 0.035760 -0.099891 -0.994355 0.035760 -0.099891 -0.994355 0.035760 -0.099891 -0.994355 0.035760 -0.099891 -0.994355 0.035760 -0.099891 
						-0.994355 0.035760 -0.099891 -0.994355 0.035760 -0.099891 0.408541 0.088495 0.908440 0.408541 0.088495 0.908440 0.408541 0.088495 0.908440 0.408541 0.088495 0.908440 0.408541 0.088495 0.908440 0.408541 0.088495 0.908440 0.408541 0.088495 0.908440 0.408541 0.088495 0.908440 0.408541 0.088495 0.908440 0.966431 0.254909 0.032126 0.966431 0.254909 0.032126 0.966431 0.254909 0.032126 0.793196 -0.434828 0.426338 0.793196 -0.434828 0.426338 0.793196 -0.434828 0.426338 0.793196 -0.434828 0.426338 0.793196 -0.434828 0.426338 0.788258 -0.483327 0.380847 0.788258 -0.483327 0.380847 0.788258 -0.483327 0.380847 -0.519675 -0.590534 0.617420 -0.519675 -0.590534 0.617420 -0.519675 -0.590534 0.617420 0.200773 -0.950209 0.238315 0.200773 -0.950209 0.238315 0.200773 -0.950209 0.238315 0.200773 -0.950209 0.238315 0.291730 -0.556026 -0.778286 0.291730 -0.556026 -0.778286 0.291730 -0.556026 -0.778286 0.291730 -0.556026 -0.778286 0.353157 -0.774753 -0.524440 0.353157 -0.774753 -0.524440 0.353157 -0.774753 -0.524440 0.003198 -0.692729 -0.721191 0.003198 -0.692729 -0.721191 0.003198 -0.692729 -0.721191 0.003198 -0.692729 -0.721191 0.210492 -0.225226 -0.951297 0.210492 -0.225226 -0.951297 0.210492 -0.225226 -0.951297 0.573396 -0.811558 -0.112204 0.573396 -0.811558 -0.112204 0.573396 -0.811558 -0.112204 -0.565924 -0.589774 0.576105 -0.565924 -0.589774 0.576105 -0.565924 -0.589774 0.576105 -0.580423 -0.548177 0.602173 -0.580423 -0.548177 0.602173 -0.580423 -0.548177 0.602173 -0.580423 -0.548177 0.602173 -0.580423 -0.548177 0.602173 -0.580423 -0.548177 0.602173 -0.300092 -0.571844 0.763504 -0.300092 -0.571844 0.763504 -0.300092 -0.571844 0.763504 0.008292 -0.506071 -0.862452 0.008292 -0.506071 -0.862452 0.008292 -0.506071 -0.862452 0.167122 -0.147910 -0.974778 0.167122 -0.147910 -0.974778 0.167122 -0.147910 -0.974778 
						-0.840335 0.246126 0.482969 -0.840335 0.246126 0.482969 -0.840335 0.246126 0.482969 -0.840335 0.246126 0.482969 -0.840335 0.246126 0.482969 -0.840335 0.246126 0.482969 -0.840335 0.246126 0.482969 -0.840335 0.246126 0.482969 -0.840335 0.246126 0.482969 -0.840335 0.246126 0.482969 -0.840335 0.246126 0.482969 -0.840335 0.246126 0.482969 -0.840335 0.246126 0.482969 -0.840335 0.246126 0.482969 -0.840335 0.246126 0.482969 -0.840335 0.246126 0.482969 -0.840335 0.246126 0.482969 -0.840335 0.246126 0.482969 -0.840335 0.246126 0.482969 -0.840335 0.246126 0.482969 0.493227 0.202788 -0.845934 0.493227 0.202788 -0.845934 0.493227 0.202788 -0.845934 0.493227 0.202788 -0.845934 0.493227 0.202788 -0.845934 0.493227 0.202788 -0.845934 0.493227 0.202788 -0.845934 0.493227 0.202788 -0.845934 0.493227 0.202788 -0.845934 0.493227 0.202788 -0.845934 0.493227 0.202788 -0.845934 0.493227 0.202788 -0.845934 0.493227 0.202788 -0.845934 0.493227 0.202788 -0.845934 0.493227 0.202788 -0.845934 0.493227 0.202788 -0.845934 0.168389 0.536400 0.826994 0.168389 0.536400 0.826994 0.168389 0.536400 0.826994 0.168389 0.536400 0.826994 0.168389 0.536400 0.826994 0.168389 0.536400 0.826994 0.168389 0.536400 0.826994 0.168389 0.536400 0.826994 0.168389 0.536400 0.826994 0.168389 0.536400 0.826994 0.168389 0.536400 0.826994 0.966431 0.254909 0.032126 0.966431 0.254909 0.032126 0.966431 0.254909 0.032126 0.965860 0.254027 0.050841 0.965860 0.254027 0.050841 0.965860 0.254027 0.050841 0.965860 0.254027 0.050841 0.965860 0.254027 0.050841 0.965860 0.254027 0.050841 
					</float_array>
					<technique_common>
						<accessor count="504" offset="0" source="#meshId0-normals-array" stride="3">
							<param name="X" type="float" />
							<param name="Y" type="float" />
							<param name="Z" type="float" />
						</accessor>
					</technique_common>
				</source>
				<source id="meshId0-tangents" name="meshId0-tangents">
					<float_array id="meshId0-tangents-array" count="1512"> 
						-0.364573 0.718596 0.592205 -0.364573 0.718596 0.592205 -0.364573 0.718596 0.592205 -0.115221 -0.898551 -0.423474 -0.115221 -0.898551 -0.423474 -0.115221 -0.898551 -0.423474 -0.259911 0.257744 0.930599 -0.259911 0.257744 0.930599 -0.259911 0.257744 0.930599 0.020466 0.928469 0.370845 0.020466 0.928469 0.370845 0.020466 0.928469 0.370845 -0.323344 0.844831 0.426273 -0.323344 0.844831 0.426273 -0.323344 0.844831 0.426273 -0.004179 0.925986 0.377535 -0.004179 0.925986 0.377535 -0.004179 0.925986 0.377535 -0.322870 -0.819332 0.473761 -0.322870 -0.819332 0.473761 -0.322870 -0.819332 0.473761 -0.244470 -0.965418 -0.090572 -0.244470 -0.965417 -0.090572 -0.244470 -0.965417 -0.090572 -0.468875 0.641641 0.607003 -0.468875 0.641642 0.607003 -0.468875 0.641642 0.607003 -0.289184 -0.957233 0.008769 -0.289184 -0.957233 0.008769 -0.289184 -0.957233 0.008769 0.608606 -0.693235 0.386036 0.608606 -0.693235 0.386036 0.608606 -0.693235 0.386036 0.235884 -0.918220 -0.318169 0.235884 -0.918220 -0.318169 0.235884 -0.918220 -0.318169 -0.176852 -0.977094 0.118364 -0.176852 -0.977094 0.118364 -0.176852 -0.977094 0.118364 0.328434 0.885947 0.327458 0.328434 0.885947 0.327458 0.328434 0.885947 0.327458 0.296874 0.891503 0.342183 0.296874 0.891503 0.342183 0.296874 0.891503 0.342183 0.317622 -0.861527 -0.396091 0.317622 -0.861527 -0.396091 0.317622 -0.861527 -0.396091 0.065161 0.915234 0.397619 0.064198 0.918636 0.389856 0.063062 0.922536 0.380723 0.063643 0.920556 0.385390 0.680670 -0.042971 -0.731328 0.680670 -0.042971 -0.731328 0.680670 -0.042971 -0.731329 -0.300830 -0.801335 0.517072 -0.268256 -0.799942 0.536779 -0.258514 -0.799305 0.542478 -0.289595 -0.800984 0.523984 0.303441 0.889148 0.342549 0.303441 0.889148 0.342549 0.303441 0.889148 0.342549 0.462976 0.812044 0.355299 0.463102 0.812445 0.354217 
						0.463325 0.813152 0.352296 0.463137 0.812554 0.353920 0.477731 0.818554 0.318969 0.477731 0.818554 0.318969 0.477731 0.818554 0.318969 0.242762 0.899723 0.362719 0.243453 0.903940 0.351601 0.246226 0.921950 0.298965 0.245307 0.915736 0.318202 0.674084 0.668870 0.313408 0.674083 0.668870 0.313408 0.674083 0.668870 0.313408 -0.256715 -0.966245 0.021643 -0.256715 -0.966245 0.021643 -0.256715 -0.966245 0.021643 0.421743 0.838519 -0.344991 0.421743 0.838519 -0.344991 0.421743 0.838519 -0.344991 -0.258133 0.262619 0.929730 -0.258133 0.262619 0.929730 -0.258133 0.262619 0.929730 0.603912 0.617040 0.504531 0.603912 0.617040 0.504531 0.603912 0.617040 0.504531 0.666116 0.510714 0.543563 0.681396 0.538196 0.496029 0.682721 0.540695 0.491467 0.682456 0.540193 0.492387 0.170866 0.907584 0.383530 0.170866 0.907584 0.383531 0.170866 0.907584 0.383531 -0.244783 -0.959776 -0.137517 -0.244783 -0.959776 -0.137517 -0.244783 -0.959776 -0.137517 -0.267385 -0.001592 0.963589 -0.267387 -0.001592 0.963588 -0.267386 -0.001592 0.963588 -0.267385 -0.001592 0.963588 -0.267385 -0.001592 0.963588 -0.267385 -0.001592 0.963588 -0.267387 -0.001592 0.963588 -0.267385 -0.001592 0.963589 -0.267384 -0.001592 0.963589 -0.267384 -0.001592 0.963589 -0.267386 -0.001592 0.963588 -0.267387 -0.001592 0.963588 -0.267383 -0.001592 0.963589 -0.267385 -0.001592 0.963589 -0.267385 -0.001592 0.963588 -0.267384 -0.001592 0.963589 -0.267384 -0.001592 0.963589 -0.267385 -0.001592 0.963588 -0.267385 -0.001592 0.963589 -0.267385 -0.001592 0.963589 -0.267385 -0.001592 0.963588 -0.267385 -0.001592 0.963588 -0.267385 -0.001592 0.963588 -0.267385 -0.001592 0.963589 -0.267383 -0.001592 0.963589 -0.267385 -0.001592 0.963588 -0.267385 -0.001592 0.963588 -0.267385 -0.001592 0.963588 -0.267385 -0.001592 0.963588 -0.267385 -0.001592 0.963588 
						-0.267385 -0.001592 0.963588 -0.522595 0.595863 0.609787 -0.522595 0.595863 0.609787 -0.522595 0.595863 0.609787 0.409335 0.845498 0.342896 0.409335 0.845498 0.342896 0.409335 0.845498 0.342896 0.557372 0.761400 0.331069 0.557372 0.761400 0.331069 0.557372 0.761400 0.331069 -0.283946 0.626981 0.725444 -0.283946 0.626981 0.725444 -0.283946 0.626981 0.725444 -0.230396 0.874833 0.426127 -0.230396 0.874833 0.426127 -0.230396 0.874833 0.426127 -0.484692 0.790129 0.375194 -0.484692 0.790129 0.375194 -0.484692 0.790129 0.375194 -0.807950 -0.134262 0.573751 -0.807950 -0.134262 0.573751 -0.807950 -0.134262 0.573751 -0.830635 -0.022019 0.556381 -0.856429 -0.035566 0.515038 -0.869351 -0.042789 0.492339 -0.849657 -0.031905 0.526370 0.150746 0.308740 -0.939125 0.150746 0.308740 -0.939125 0.150746 0.308740 -0.939125 -0.816925 -0.049773 0.574593 -0.816925 -0.049773 0.574593 -0.816925 -0.049773 0.574593 0.696998 0.016614 -0.716880 0.696998 0.016614 -0.716881 0.696996 0.016615 -0.716883 0.696996 0.016615 -0.716882 0.701362 0.045248 -0.711367 0.701363 0.045248 -0.711367 0.701363 0.045248 -0.711367 -0.767606 -0.334145 0.546926 -0.767606 -0.334145 0.546926 -0.767606 -0.334145 0.546926 -0.550511 -0.650528 0.523213 -0.550511 -0.650528 0.523213 -0.550511 -0.650528 0.523213 0.496692 -0.656616 0.567584 0.496692 -0.656616 0.567584 0.496692 -0.656616 0.567584 0.356540 -0.812720 -0.460831 0.356538 -0.812720 -0.460832 0.356536 -0.812721 -0.460833 0.356538 -0.812721 -0.460832 0.317541 -0.861797 -0.395567 0.317499 -0.861796 -0.395602 0.317412 -0.861795 -0.395675 0.317469 -0.861796 -0.395627 -0.060725 -0.965693 -0.252487 -0.035013 -0.964898 -0.260280 0.002311 -0.962508 -0.271244 -0.039716 -0.965096 -0.258869 -0.359594 -0.402572 -0.841800 -0.359594 -0.402572 -0.841800 -0.359594 -0.402572 -0.841800 0.422011 -0.186765 0.887145 
						0.489555 -0.156021 0.857901 0.496983 -0.152488 0.854257 0.496173 -0.152875 0.854659 0.496013 -0.152951 0.854738 0.495867 -0.153021 0.854810 0.496035 -0.152941 0.854727 0.496055 -0.152932 0.854717 0.496061 -0.152928 0.854714 0.496201 -0.152862 0.854645 0.496771 -0.152589 0.854362 0.576491 -0.112573 0.809312 0.518896 -0.141881 0.842981 0.634543 0.746805 0.199094 0.635216 0.743655 0.208515 0.634849 0.745416 0.203276 0.634657 0.746294 0.200637 0.634657 0.746294 0.200636 0.634657 0.746294 0.200636 0.634657 0.746294 0.200636 0.634657 0.746294 0.200637 0.634657 0.746294 0.200637 0.634657 0.746295 0.200635 0.634657 0.746296 0.200632 0.634657 0.746297 0.200629 0.634658 0.746291 0.200647 0.634657 0.746295 0.200634 0.634657 0.746298 0.200626 0.634658 0.746292 0.200644 0.634646 0.746347 0.200478 0.501807 -0.660301 0.558742 0.501807 -0.660301 0.558742 0.501807 -0.660301 0.558742 0.009190 0.843925 -0.536383 0.009190 0.843925 -0.536383 0.009190 0.843925 -0.536383 0.460012 -0.630632 0.625054 0.460012 -0.630632 0.625054 0.460012 -0.630632 0.625054 0.491286 0.866569 -0.087730 0.491286 0.866569 -0.087730 0.491286 0.866569 -0.087730 -0.909956 0.308146 -0.277536 -0.909956 0.308146 -0.277536 -0.909956 0.308146 -0.277536 -0.909956 0.308146 -0.277536 -0.909948 0.308171 -0.277535 -0.909761 0.308739 -0.277514 -0.909878 0.308385 -0.277527 -0.909956 0.308147 -0.277536 -0.909956 0.308145 -0.277536 -0.909955 0.308148 -0.277536 -0.909956 0.308147 -0.277536 0.491396 -0.653185 0.576090 0.491397 -0.653184 0.576090 0.491397 -0.653183 0.576090 0.491397 -0.653184 0.576090 0.491396 -0.653184 0.576090 0.566560 0.643765 0.514370 0.566560 0.643765 0.514370 0.566560 0.643765 0.514370 0.319431 -0.859753 -0.398482 0.319431 -0.859753 -0.398482 0.319431 -0.859753 -0.398482 0.323805 -0.855983 -0.403041 
						0.323805 -0.855983 -0.403041 0.323805 -0.855983 -0.403041 0.553829 0.765229 0.328173 0.553829 0.765229 0.328173 0.553829 0.765229 0.328173 0.587063 0.634092 0.503275 0.587063 0.634092 0.503275 0.587063 0.634092 0.503275 0.315654 0.881672 0.350739 0.315654 0.881672 0.350739 0.315654 0.881672 0.350739 0.458578 0.800970 0.384906 0.458578 0.800970 0.384906 0.458578 0.800970 0.384906 -0.597250 0.470605 0.649479 -0.597159 0.470341 0.649754 -0.596953 0.469745 0.650375 -0.597119 0.470227 0.649873 -0.431448 0.613533 0.661385 -0.418964 0.609376 0.673149 -0.384985 0.597343 0.703540 -0.398246 0.602161 0.691955 0.304454 0.788298 0.534691 0.304490 0.787551 0.535770 0.304693 0.783091 0.542153 0.304563 0.785987 0.538021 0.469765 0.737789 0.484756 0.469765 0.737789 0.484756 0.469765 0.737789 0.484756 0.334809 0.877658 0.342958 0.334711 0.876898 0.344990 0.334506 0.875335 0.349134 0.334506 0.875335 0.349133 0.334614 0.876155 0.346967 0.558582 0.762305 0.326920 0.558726 0.762514 0.326186 0.559259 0.763290 0.323447 0.559093 0.763049 0.324300 -0.112163 0.760286 0.639832 -0.112164 0.760285 0.639832 -0.111950 0.760426 0.639703 -0.110083 0.761645 0.638575 -0.111904 0.760456 0.639675 0.262672 0.895238 0.359935 0.262672 0.895238 0.359933 0.262672 0.895238 0.359933 0.262672 0.895238 0.359934 0.070763 0.912209 0.403568 0.070953 0.912000 0.404008 0.071890 0.910960 0.406181 0.071034 0.911910 0.404196 -0.332760 -0.936120 0.113797 -0.328831 -0.937271 0.115734 -0.328149 -0.937468 0.116069 -0.331685 -0.936437 0.114327 0.518448 0.807693 0.280791 0.518448 0.807693 0.280791 0.518448 0.807693 0.280791 -0.255562 -0.966638 0.017293 -0.259640 -0.965576 0.015799 -0.268094 -0.963309 0.012697 -0.258248 -0.965941 0.016310 0.190816 -0.977668 0.088057 0.190816 -0.977668 0.088057 
						0.190816 -0.977668 0.088057 0.727066 -0.558377 -0.399487 0.727066 -0.558377 -0.399487 0.727066 -0.558377 -0.399487 0.727066 -0.558377 -0.399488 0.727065 -0.558378 -0.399488 0.727064 -0.558379 -0.399489 0.732967 -0.553892 -0.394920 0.760288 -0.531976 -0.372777 0.727911 -0.557740 -0.398838 -0.276009 -0.959403 0.058002 -0.248495 -0.966916 0.057653 -0.242240 -0.968507 0.057567 -0.248889 -0.966814 0.057658 -0.326861 -0.810287 0.486412 -0.326861 -0.810287 0.486412 -0.326861 -0.810287 0.486412 -0.410649 -0.629419 0.659696 -0.410649 -0.629419 0.659696 -0.410649 -0.629419 0.659696 -0.506076 -0.025995 0.862097 -0.457160 -0.028283 0.888935 -0.429289 -0.029519 0.902685 -0.419165 -0.029957 0.907415 -0.457131 -0.028284 0.888950 -0.310943 -0.844176 0.436672 -0.310897 -0.844182 0.436692 -0.310784 -0.844197 0.436744 -0.310898 -0.844182 0.436692 -0.279941 -0.031444 0.959502 -0.297440 -0.023619 0.954448 -0.326181 -0.010632 0.945248 -0.310793 -0.017607 0.950315 -0.784322 -0.262666 0.562001 -0.788842 -0.169304 0.590816 -0.788823 -0.148406 0.596434 -0.788823 -0.148339 0.596451 -0.788276 -0.122083 0.603089 -0.788626 -0.135447 0.599769 -0.788844 -0.150736 0.595822 -0.788844 -0.150746 0.595820 -0.788846 -0.150993 0.595755 -0.788849 -0.151406 0.595646 -0.788843 -0.150617 0.595854 -0.788823 -0.148406 0.596434 -0.788823 -0.148405 0.596434 -0.788823 -0.148408 0.596433 -0.788821 -0.148218 0.596483 -0.788865 -0.165814 0.591775 0.105685 0.250734 -0.962270 0.105685 0.250731 -0.962270 0.105685 0.250733 -0.962270 0.105685 0.250731 -0.962270 0.105685 0.250731 -0.962270 0.105685 0.250731 -0.962271 0.105685 0.250731 -0.962271 0.105685 0.250730 -0.962271 0.105685 0.250730 -0.962271 0.105685 0.250731 -0.962271 0.105685 0.250731 -0.962270 0.105685 0.250734 -0.962270 0.105685 0.250729 -0.962271 0.105685 0.250731 -0.962271 0.105685 0.250731 -0.962271 
						0.105685 0.250729 -0.962271 0.105685 0.250733 -0.962270 0.881680 0.219173 -0.417857 0.881680 0.219171 -0.417857 0.881680 0.219172 -0.417857 0.881680 0.219172 -0.417857 0.881680 0.219172 -0.417857 0.881680 0.219172 -0.417857 0.881680 0.219172 -0.417856 0.881680 0.219172 -0.417857 0.881680 0.219172 -0.417857 0.219537 -0.754356 -0.618669 0.219537 -0.754356 -0.618669 0.219537 -0.754356 -0.618669 -0.388956 -0.900441 -0.194726 -0.388956 -0.900441 -0.194727 -0.388956 -0.900441 -0.194726 -0.388957 -0.900441 -0.194724 -0.388956 -0.900441 -0.194726 -0.432058 -0.875417 -0.216727 -0.432058 -0.875417 -0.216727 -0.432058 -0.875417 -0.216727 0.373528 -0.806982 -0.457447 0.373528 -0.806982 -0.457447 0.373528 -0.806982 -0.457447 -0.502339 0.108991 0.857774 -0.515215 0.104488 0.850667 -0.567420 0.085510 0.818977 -0.512741 0.105359 0.852054 -0.421608 -0.805122 0.417164 -0.320711 -0.823440 0.468071 -0.316830 -0.823919 0.469868 -0.417363 -0.806131 0.419476 -0.409567 -0.632020 0.657879 -0.409567 -0.632020 0.657879 -0.409567 -0.632020 0.657879 -0.416448 -0.656603 0.628843 -0.410330 -0.658593 0.630781 -0.402036 -0.661233 0.633354 -0.409045 -0.659006 0.631184 -0.188250 -0.964225 0.186633 -0.188250 -0.964225 0.186633 -0.188250 -0.964225 0.186633 -0.479404 -0.443424 0.757329 -0.479404 -0.443424 0.757329 -0.479404 -0.443424 0.757329 0.374077 -0.806384 -0.458051 0.374077 -0.806384 -0.458051 0.374077 -0.806384 -0.458051 0.346143 -0.835437 -0.426884 0.346199 -0.835440 -0.426833 0.346219 -0.835441 -0.426814 0.346221 -0.835441 -0.426813 0.346222 -0.835441 -0.426812 0.346171 -0.835438 -0.426858 0.358241 -0.809368 -0.465390 0.358241 -0.809368 -0.465390 0.358241 -0.809368 -0.465390 0.442250 -0.771690 0.457066 0.442251 -0.771690 0.457066 0.442251 -0.771690 0.457066 -0.276432 -0.956057 0.097676 -0.276432 -0.956057 0.097676 -0.276432 -0.956057 0.097676 
						0.447810 -0.186857 0.874386 0.447805 -0.186875 0.874385 0.447812 -0.186852 0.874386 0.447811 -0.186853 0.874386 0.447810 -0.186857 0.874386 0.447826 -0.186807 0.874388 0.447813 -0.186850 0.874386 0.447509 -0.187795 0.874339 0.450294 -0.179072 0.874739 0.449370 -0.181980 0.874614 0.446733 -0.190203 0.874216 0.447264 -0.188554 0.874301 0.447809 -0.186861 0.874385 0.447812 -0.186850 0.874386 0.447811 -0.186856 0.874386 0.447808 -0.186864 0.874385 0.447810 -0.186857 0.874386 0.447810 -0.186857 0.874386 0.447810 -0.186857 0.874386 0.447811 -0.186856 0.874386 0.831157 0.177127 0.527072 0.831157 0.177127 0.527072 0.831157 0.177127 0.527072 0.831157 0.177127 0.527072 0.831157 0.177127 0.527072 0.831157 0.177127 0.527072 0.831155 0.177132 0.527072 0.831171 0.177072 0.527067 0.831156 0.177129 0.527072 0.831157 0.177127 0.527072 0.831156 0.177129 0.527072 0.831157 0.177127 0.527072 0.831157 0.177126 0.527072 0.831157 0.177124 0.527072 0.831157 0.177127 0.527072 0.831156 0.177129 0.527072 0.184349 -0.841309 0.508148 0.202589 -0.839897 0.503519 0.203921 -0.839782 0.503173 0.200763 -0.840052 0.503991 0.204085 -0.839767 0.503130 0.204487 -0.839732 0.503025 0.204486 -0.839732 0.503026 0.204482 -0.839733 0.503027 0.204483 -0.839733 0.503026 0.205007 -0.839687 0.502890 0.200982 -0.840033 0.503934 -0.044832 0.290434 -0.955844 -0.044832 0.290434 -0.955844 -0.044832 0.290434 -0.955844 -0.139288 0.674674 -0.724854 -0.139289 0.674676 -0.724853 -0.140100 0.677249 -0.722292 -0.160883 0.741968 -0.650846 -0.148869 0.704839 -0.693570 -0.139289 0.674675 -0.724853 
					</float_array>
					<technique_common>
						<accessor count="504" offset="0" source="#meshId0-tangents-array" stride="3">
							<param name="X" type="float" />
							<param name="Y" type="float" />
							<param name="Z" type="float" />
						</accessor>
					</technique_common>
				</source>
				<source id="meshId0-bitangents" name="meshId0-bitangents">
					<float_array id="meshId0-bitangents-array" count="1512"> 
						-0.235146 0.544317 -0.805249 -0.235146 0.544317 -0.805249 -0.235146 0.544317 -0.805249 0.984218 -0.045627 -0.170977 0.984218 -0.045627 -0.170977 0.984218 -0.045627 -0.170977 -0.848177 0.399714 -0.347598 -0.848177 0.399714 -0.347598 -0.848177 0.399714 -0.347598 -0.040696 0.371389 -0.927585 -0.040696 0.371389 -0.927585 -0.040696 0.371389 -0.927585 -0.379620 0.296825 -0.876233 -0.379619 0.296825 -0.876233 -0.379619 0.296825 -0.876233 -0.062942 0.376546 -0.924257 -0.062942 0.376546 -0.924257 -0.062942 0.376546 -0.924257 -0.922291 0.160012 -0.351818 -0.922291 0.160012 -0.351818 -0.922291 0.160012 -0.351818 -0.949570 0.219445 0.223966 -0.949570 0.219445 0.223966 -0.949570 0.219445 0.223966 -0.348139 0.497341 -0.794639 -0.348139 0.497341 -0.794639 -0.348139 0.497341 -0.794639 -0.767460 0.226358 -0.599806 -0.767460 0.226358 -0.599806 -0.767460 0.226358 -0.599806 0.613500 0.719658 0.325131 0.613500 0.719658 0.325131 0.613500 0.719657 0.325131 0.597329 -0.121253 0.792777 0.597329 -0.121253 0.792777 0.597329 -0.121253 0.792777 -0.942970 0.133750 -0.304825 -0.942970 0.133750 -0.304825 -0.942970 0.133750 -0.304825 0.124139 0.303194 -0.944809 0.124139 0.303194 -0.944808 0.124139 0.303194 -0.944809 0.040439 0.346279 -0.937260 0.040439 0.346279 -0.937260 0.040439 0.346279 -0.937260 0.773184 -0.006499 0.634148 0.773184 -0.006499 0.634148 0.773184 -0.006499 0.634148 -0.112693 0.402666 -0.908383 -0.113245 0.394844 -0.911742 -0.113881 0.385642 -0.915593 -0.113558 0.390345 -0.913638 -0.647743 0.431037 -0.628201 -0.647743 0.431037 -0.628201 -0.647743 0.431037 -0.628201 -0.849447 -0.021319 -0.527243 -0.860289 -0.051826 -0.507165 -0.863267 -0.060865 -0.501065 -0.853342 -0.031890 -0.520374 0.080910 0.334157 -0.939038 0.080910 0.334157 -0.939038 0.080910 0.334157 -0.939038 0.109238 0.345518 -0.932032 0.108701 0.344575 -0.932444 
						0.107747 0.342901 -0.933172 0.108553 0.344316 -0.932557 0.094384 0.313156 -0.945000 0.094384 0.313156 -0.945000 0.094384 0.313156 -0.945000 0.059489 0.359393 -0.931288 0.056593 0.348651 -0.935542 0.042950 0.297780 -0.953668 0.047924 0.316375 -0.947423 0.207673 0.235567 -0.949410 0.207673 0.235567 -0.949410 0.207673 0.235567 -0.949410 -0.964090 0.257590 0.064643 -0.964090 0.257590 0.064643 -0.964090 0.257590 0.064643 -0.604173 -0.023825 -0.796497 -0.604173 -0.023825 -0.796497 -0.604173 -0.023825 -0.796497 -0.940804 0.150481 -0.303714 -0.940804 0.150481 -0.303714 -0.940804 0.150481 -0.303714 0.180873 0.510390 -0.840706 0.180873 0.510390 -0.840706 0.180873 0.510390 -0.840706 0.287200 0.496953 -0.818874 0.248785 0.467050 -0.848511 0.245124 0.464155 -0.851161 0.245862 0.464739 -0.850629 0.120691 0.367044 -0.922341 0.120691 0.367044 -0.922340 0.120691 0.367044 -0.922340 -0.968470 0.248810 -0.012631 -0.968470 0.248810 -0.012631 -0.968470 0.248810 -0.012631 -0.963571 -0.005735 -0.267389 -0.963571 -0.005735 -0.267392 -0.963571 -0.005735 -0.267390 -0.963571 -0.005735 -0.267390 -0.963571 -0.005735 -0.267390 -0.963571 -0.005735 -0.267390 -0.963571 -0.005735 -0.267391 -0.963571 -0.005735 -0.267389 -0.963571 -0.005735 -0.267389 -0.963572 -0.005736 -0.267388 -0.963571 -0.005735 -0.267391 -0.963571 -0.005735 -0.267392 -0.963572 -0.005736 -0.267388 -0.963571 -0.005735 -0.267389 -0.963571 -0.005735 -0.267390 -0.963572 -0.005735 -0.267389 -0.963571 -0.005735 -0.267389 -0.963571 -0.005735 -0.267390 -0.963571 -0.005735 -0.267390 -0.963571 -0.005735 -0.267389 -0.963571 -0.005735 -0.267390 -0.963571 -0.005735 -0.267390 -0.963571 -0.005735 -0.267390 -0.963571 -0.005735 -0.267389 -0.963572 -0.005736 -0.267388 -0.963571 -0.005735 -0.267390 -0.963571 -0.005735 -0.267390 -0.963571 -0.005735 -0.267390 -0.963571 -0.005735 -0.267390 -0.963571 -0.005735 -0.267390 
						-0.963571 -0.005735 -0.267390 -0.067480 0.684074 -0.726285 -0.067480 0.684074 -0.726285 -0.067480 0.684074 -0.726285 0.046515 0.355997 -0.933329 0.046515 0.355997 -0.933329 0.046515 0.355997 -0.933329 0.109561 0.327815 -0.938368 0.109561 0.327815 -0.938368 0.109561 0.327815 -0.938368 -0.642248 0.437418 -0.629431 -0.642248 0.437418 -0.629431 -0.642248 0.437418 -0.629431 -0.192221 0.388364 -0.901235 -0.192221 0.388364 -0.901235 -0.192221 0.388364 -0.901235 -0.130807 0.358646 -0.924263 -0.130807 0.358646 -0.924263 -0.130807 0.358646 -0.924263 0.551539 0.170428 0.816553 0.551539 0.170428 0.816553 0.551539 0.170428 0.816553 0.531160 0.268484 0.803608 0.488483 0.267028 0.830711 0.465097 0.265966 0.844362 0.500169 0.267490 0.823578 -0.980000 -0.078166 -0.183005 -0.980000 -0.078166 -0.183005 -0.980000 -0.078166 -0.183005 0.576279 -0.110448 0.809755 0.576279 -0.110448 0.809755 0.576279 -0.110448 0.809755 -0.696681 0.252408 -0.671510 -0.696682 0.252408 -0.671509 -0.696684 0.252408 -0.671507 -0.696683 0.252408 -0.671508 -0.701545 0.220500 -0.677653 -0.701545 0.220500 -0.677653 -0.701545 0.220500 -0.677653 0.422063 0.378655 0.823701 0.422063 0.378655 0.823701 0.422063 0.378655 0.823701 0.519979 0.223122 0.824523 0.519979 0.223122 0.824523 0.519979 0.223122 0.824523 0.698649 0.690484 0.187407 0.698649 0.690484 0.187407 0.698649 0.690484 0.187407 0.892689 0.150814 0.424689 0.892690 0.150812 0.424689 0.892691 0.150810 0.424687 0.892690 0.150811 0.424688 0.768588 -0.010408 0.639659 0.768605 -0.010456 0.639638 0.768641 -0.010553 0.639593 0.768618 -0.010489 0.639622 0.955867 0.016586 -0.293332 0.957154 0.042535 -0.286440 0.957791 0.080102 -0.276080 0.956970 0.037793 -0.287715 0.789394 0.349788 -0.504486 0.789394 0.349788 -0.504486 0.789394 0.349788 -0.504486 0.864297 0.378279 -0.331506 
						0.827912 0.391961 -0.401158 0.823474 0.393349 -0.408860 0.823962 0.393199 -0.408020 0.824059 0.393169 -0.407854 0.824147 0.393142 -0.407702 0.824046 0.393173 -0.407876 0.824034 0.393177 -0.407897 0.824030 0.393178 -0.407904 0.823946 0.393204 -0.408049 0.823602 0.393310 -0.408641 0.769909 0.406575 -0.491870 0.809845 0.397298 -0.431630 -0.070743 0.312635 -0.947235 -0.064421 0.320055 -0.945206 -0.067939 0.315931 -0.946347 -0.069708 0.313852 -0.946909 -0.069709 0.313852 -0.946910 -0.069709 0.313851 -0.946910 -0.069709 0.313851 -0.946910 -0.069708 0.313852 -0.946909 -0.069709 0.313852 -0.946910 -0.069709 0.313851 -0.946910 -0.069711 0.313848 -0.946911 -0.069714 0.313846 -0.946911 -0.069702 0.313860 -0.946907 -0.069710 0.313850 -0.946910 -0.069716 0.313844 -0.946912 -0.069703 0.313858 -0.946908 -0.069815 0.313727 -0.946943 0.715512 0.679841 0.160808 0.715512 0.679841 0.160808 0.715512 0.679841 0.160808 -0.985729 0.097814 0.137008 -0.985729 0.097814 0.137008 -0.985729 0.097814 0.137008 0.726475 0.672063 0.143407 0.726475 0.672063 0.143407 0.726475 0.672063 0.143407 -0.615004 0.273804 -0.739460 -0.615004 0.273804 -0.739460 -0.615004 0.273804 -0.739460 -0.311191 -0.949732 -0.034180 -0.311191 -0.949732 -0.034180 -0.311191 -0.949732 -0.034180 -0.311191 -0.949733 -0.034180 -0.311215 -0.949724 -0.034188 -0.311759 -0.949540 -0.034354 -0.311420 -0.949655 -0.034250 -0.311192 -0.949732 -0.034180 -0.311190 -0.949733 -0.034180 -0.311193 -0.949732 -0.034181 -0.311192 -0.949732 -0.034181 0.723420 0.674439 0.147630 0.723419 0.674441 0.147629 0.723419 0.674441 0.147628 0.723420 0.674440 0.147629 0.723420 0.674440 0.147629 0.275391 0.440401 -0.854522 0.275391 0.440401 -0.854522 0.275391 0.440401 -0.854522 0.740714 -0.035734 0.670870 0.740714 -0.035734 0.670870 0.740714 -0.035734 0.670870 0.737675 -0.038334 0.674066 
						0.737675 -0.038334 0.674066 0.737675 -0.038334 0.674066 0.109555 0.323741 -0.939782 0.109555 0.323741 -0.939782 0.109555 0.323741 -0.939782 0.259489 0.441483 -0.858928 0.259489 0.441483 -0.858928 0.259489 0.441483 -0.858928 0.033943 0.358908 -0.932755 0.033943 0.358908 -0.932755 0.033943 0.358908 -0.932755 -0.292141 0.544940 -0.785935 -0.292141 0.544940 -0.785935 -0.292141 0.544940 -0.785935 -0.232593 0.673346 -0.701787 -0.232827 0.673530 -0.701533 -0.233356 0.673946 -0.700957 -0.232929 0.673610 -0.701423 -0.703504 0.230127 -0.672401 -0.711009 0.240920 -0.660624 -0.729967 0.269375 -0.628160 -0.722817 0.258426 -0.640899 -0.027685 0.568426 -0.822268 -0.027286 0.569460 -0.821566 -0.024913 0.575577 -0.817368 -0.026451 0.571617 -0.820094 -0.124067 0.598843 -0.791198 -0.124067 0.598843 -0.791198 -0.124067 0.598843 -0.791198 0.044646 0.348780 -0.936141 0.045372 0.350685 -0.935394 0.046856 0.354569 -0.933855 0.046856 0.354569 -0.933855 0.046080 0.352538 -0.934662 0.185232 0.269543 -0.945006 0.184798 0.268952 -0.945259 0.183178 0.266741 -0.946200 0.183683 0.267430 -0.945908 0.746819 0.489251 -0.450438 0.746819 0.489251 -0.450438 0.746851 0.489034 -0.450621 0.747128 0.487132 -0.452219 0.746858 0.488987 -0.450661 0.063362 0.356224 -0.932250 0.063362 0.356223 -0.932250 0.063362 0.356223 -0.932250 0.063362 0.356224 -0.932250 -0.362683 0.400421 -0.841501 -0.362646 0.400898 -0.841290 -0.362461 0.403254 -0.840243 -0.362630 0.401101 -0.841200 -0.866780 0.256094 -0.427913 -0.868278 0.251851 -0.427393 -0.868536 0.251115 -0.427302 -0.867191 0.254933 -0.427771 0.098543 0.269748 -0.957875 0.098543 0.269748 -0.957875 0.098543 0.269748 -0.957875 -0.912726 0.235333 -0.333990 -0.911574 0.239653 -0.334064 -0.909124 0.248609 -0.334196 -0.911970 0.238178 -0.334040 -0.429759 -0.002552 0.902940 -0.429759 -0.002552 0.902940 
						-0.429759 -0.002552 0.902940 -0.681016 -0.512686 -0.522848 -0.681016 -0.512686 -0.522848 -0.681016 -0.512686 -0.522848 -0.681016 -0.512686 -0.522848 -0.681017 -0.512685 -0.522848 -0.681018 -0.512684 -0.522847 -0.674660 -0.517528 -0.526307 -0.643715 -0.540031 -0.542216 -0.680112 -0.513379 -0.523344 -0.960775 0.277093 0.011404 -0.968256 0.249618 0.013054 -0.969840 0.243371 0.013426 -0.968155 0.250011 0.013030 -0.901319 0.112480 -0.418297 -0.901319 0.112480 -0.418297 -0.901319 0.112480 -0.418297 -0.863875 0.037112 -0.502338 -0.863875 0.037112 -0.502338 -0.863875 0.037112 -0.502338 -0.862187 0.041711 -0.504871 -0.889091 0.040195 -0.455961 -0.902878 0.039296 -0.428096 -0.907623 0.038964 -0.417975 -0.889106 0.040194 -0.455932 -0.904381 0.121524 -0.409056 -0.904397 0.121481 -0.409034 -0.904436 0.121376 -0.408979 -0.904396 0.121483 -0.409034 -0.885547 0.394419 -0.245438 -0.879824 0.394965 -0.264410 -0.869578 0.395528 -0.295621 -0.875196 0.395279 -0.278902 -0.084673 0.942786 0.322468 -0.007644 0.963937 0.266021 0.009428 0.967375 0.253174 0.009482 0.967385 0.253133 0.030844 0.971048 0.236885 0.019984 0.969274 0.245169 0.007528 0.967015 0.254610 0.007519 0.967013 0.254616 0.007318 0.966974 0.254768 0.006981 0.966910 0.255022 0.007625 0.967033 0.254536 0.009428 0.967375 0.253174 0.009429 0.967375 0.253173 0.009426 0.967375 0.253175 0.009581 0.967404 0.253058 -0.004788 0.964544 0.263880 -0.009365 -0.967395 -0.253098 -0.009365 -0.967396 -0.253095 -0.009365 -0.967396 -0.253097 -0.009365 -0.967396 -0.253096 -0.009365 -0.967396 -0.253095 -0.009365 -0.967396 -0.253095 -0.009365 -0.967396 -0.253095 -0.009365 -0.967396 -0.253094 -0.009365 -0.967396 -0.253094 -0.009365 -0.967396 -0.253095 -0.009365 -0.967396 -0.253095 -0.009365 -0.967395 -0.253098 -0.009365 -0.967397 -0.253093 -0.009365 -0.967396 -0.253095 -0.009365 -0.967396 -0.253095 
						-0.009365 -0.967396 -0.253094 -0.009365 -0.967396 -0.253097 -0.236083 0.971665 0.011517 -0.236082 0.971665 0.011516 -0.236082 0.971665 0.011516 -0.236083 0.971665 0.011517 -0.236083 0.971665 0.011517 -0.236083 0.971665 0.011517 -0.236082 0.971665 0.011516 -0.236083 0.971665 0.011517 -0.236083 0.971665 0.011517 -0.133470 0.604954 -0.784995 -0.133470 0.604954 -0.784995 -0.133470 0.604954 -0.784995 0.468565 -0.011371 -0.883356 0.468565 -0.011370 -0.883356 0.468565 -0.011371 -0.883356 0.468564 -0.011373 -0.883356 0.468565 -0.011370 -0.883356 0.438150 0.006289 -0.898880 0.438150 0.006289 -0.898880 0.438150 0.006289 -0.898880 0.768385 -0.007100 0.639949 0.768385 -0.007100 0.639949 0.768385 -0.007100 0.639949 -0.841039 -0.291932 -0.455444 -0.833213 -0.293574 -0.468584 -0.798577 -0.299653 -0.521999 -0.834738 -0.293263 -0.466058 -0.858569 0.206432 -0.469303 -0.901132 0.113054 -0.418546 -0.902503 0.109509 -0.416528 -0.860640 0.202454 -0.467238 -0.841151 -0.017542 -0.540516 -0.841151 -0.017542 -0.540516 -0.841151 -0.017542 -0.540516 -0.909154 0.298328 -0.290586 -0.911931 0.293909 -0.286354 -0.915618 0.287919 -0.280617 -0.912509 0.292981 -0.285465 -0.959299 0.139797 -0.245361 -0.959299 0.139797 -0.245361 -0.959299 0.139797 -0.245361 -0.664371 -0.380458 -0.643322 -0.664371 -0.380458 -0.643322 -0.664371 -0.380458 -0.643322 0.734708 -0.043714 0.676973 0.734708 -0.043714 0.676973 0.734708 -0.043714 0.676973 0.737085 -0.039335 0.674654 0.737059 -0.039272 0.674686 0.737049 -0.039249 0.674698 0.737049 -0.039247 0.674699 0.737048 -0.039246 0.674700 0.737072 -0.039303 0.674670 0.884086 0.133858 0.447743 0.884086 0.133858 0.447743 0.884086 0.133858 0.447743 -0.896853 -0.385210 0.217411 -0.896853 -0.385210 0.217411 -0.896853 -0.385210 0.217411 -0.946391 0.253136 -0.200665 -0.946391 0.253136 -0.200665 -0.946391 0.253136 -0.200665 
						0.305455 0.951055 0.046804 0.305464 0.951052 0.046821 0.305453 0.951056 0.046800 0.305454 0.951056 0.046801 0.305456 0.951055 0.046805 0.305432 0.951065 0.046758 0.305452 0.951057 0.046798 0.305897 0.950870 0.047667 0.301783 0.952552 0.039652 0.303156 0.952000 0.042322 0.307030 0.950392 0.049881 0.306254 0.950720 0.048365 0.305457 0.951054 0.046808 0.305452 0.951057 0.046798 0.305455 0.951055 0.046804 0.305459 0.951054 0.046811 0.305455 0.951055 0.046804 0.305455 0.951055 0.046804 0.305455 0.951055 0.046804 0.305455 0.951055 0.046804 0.256721 -0.963070 -0.081185 0.256721 -0.963070 -0.081185 0.256721 -0.963070 -0.081185 0.256721 -0.963070 -0.081185 0.256721 -0.963070 -0.081185 0.256721 -0.963070 -0.081185 0.256726 -0.963069 -0.081182 0.256674 -0.963080 -0.081215 0.256723 -0.963069 -0.081183 0.256721 -0.963070 -0.081185 0.256723 -0.963069 -0.081184 0.256722 -0.963070 -0.081185 0.256721 -0.963070 -0.081185 0.256719 -0.963070 -0.081186 0.256721 -0.963070 -0.081185 0.256723 -0.963069 -0.081184 0.968329 0.066889 -0.240552 0.964677 0.082753 -0.250099 0.964397 0.083913 -0.250794 0.965059 0.081163 -0.249145 0.964362 0.084055 -0.250879 0.964277 0.084405 -0.251089 0.964277 0.084405 -0.251089 0.964278 0.084401 -0.251086 0.964278 0.084402 -0.251087 0.964167 0.084858 -0.251360 0.965014 0.081354 -0.249260 -0.252984 0.922317 0.292112 -0.252984 0.922317 0.292112 -0.252984 0.922317 0.292112 -0.218434 0.693026 0.687024 -0.218434 0.693025 0.687025 -0.217914 0.690510 0.689717 -0.203055 0.620446 0.757506 -0.212021 0.662323 0.718593 -0.218434 0.693025 0.687025 
					</float_array>
					<technique_common>
						<accessor count="504" offset="0" source="#meshId0-bitangents-array" stride="3">
							<param name="X" type="float" />
							<param name="Y" type="float" />
							<param name="Z" type="float" />
						</accessor>
					</technique_common>
				</source>
				<source id="meshId0-tex0" name="meshId0-tex0">
					<float_array id="meshId0-tex0-array" count="1008"> 
						0.433809 0.842014 0.435180 0.862945 0.411564 0.888064 0.380528 0.484282 0.372145 0.485238 0.381119 0.473982 0.895408 0.021488 0.896206 0.013449 0.902798 0.021641 0.759559 0.820500 0.758993 0.838017 0.752473 0.845326 0.729942 0.939034 0.730086 0.919451 0.753408 0.908425 0.758149 0.852573 0.752473 0.845326 0.758993 0.838017 0.884675 0.146885 0.887223 0.132064 0.906764 0.135783 0.874934 0.168442 0.880471 0.174198 0.839104 0.182366 0.435180 0.862945 0.431827 0.891889 0.411564 0.888064 0.872559 0.190560 0.847913 0.199685 0.839104 0.182366 0.637173 0.295983 0.636429 0.278705 0.648879 0.295080 0.971470 0.743961 0.960088 0.735973 0.973321 0.730327 0.917535 0.034419 0.919857 0.053064 0.912385 0.040725 0.729852 0.903679 0.748588 0.885493 0.730086 0.919451 0.700551 0.915659 0.693941 0.886681 0.718939 0.882550 0.925839 0.669651 0.949787 0.673821 0.937475 0.690801 0.756553 0.864268 0.737710 0.872878 0.752473 0.845326 0.758149 0.852573 0.669920 0.259179 0.676053 0.245184 0.678996 0.262207 0.919079 0.060844 0.909151 0.048786 0.912385 0.040725 0.919857 0.053064 0.691718 0.859202 0.718939 0.882550 0.693941 0.886681 0.729852 0.903679 0.718939 0.882550 
						0.737710 0.872878 0.748588 0.885493 0.698076 0.935274 0.729852 0.903679 0.707070 0.939792 0.757580 0.935626 0.729942 0.939034 0.753408 0.908425 0.755777 0.915593 0.737710 0.872878 0.718939 0.882550 0.752473 0.845326 0.880471 0.174198 0.914851 0.190398 0.872559 0.190560 0.686093 0.283324 0.678996 0.262207 0.685285 0.265433 0.895408 0.021488 0.902798 0.021641 0.893351 0.036570 0.381903 0.925236 0.386296 0.882433 0.411564 0.888064 0.424984 0.844636 0.433809 0.842014 0.411564 0.888064 0.405874 0.852961 0.756553 0.864268 0.748588 0.885493 0.737710 0.872878 0.880471 0.174198 0.872559 0.190560 0.839104 0.182366 0.232674 0.000392 0.266212 0.006524 0.275107 0.008549 0.331943 0.076885 0.342643 0.096843 0.346827 0.106272 0.357265 0.107331 0.381119 0.136012 0.381119 0.259210 0.372197 0.269685 0.370147 0.297683 0.356218 0.322649 0.348278 0.339859 0.321338 0.389119 0.123550 0.423180 0.093272 0.401550 0.090926 0.392889 0.077967 0.390617 0.002306 0.336573 0.000392 0.317835 0.004744 0.263897 0.005057 0.255424 0.008590 0.218335 0.011864 0.208317 0.034952 0.196718 0.037252 0.189203 0.037627 0.168803 0.036694 0.151631 0.032839 0.137809 0.024436 0.131944 
						0.047333 0.045258 0.411564 0.888064 0.431827 0.891889 0.412279 0.915846 0.718356 0.822940 0.742133 0.824830 0.718939 0.882550 0.742133 0.824830 0.752473 0.845326 0.718939 0.882550 0.399847 0.935051 0.388279 0.938565 0.395469 0.928194 0.730086 0.919451 0.748588 0.885493 0.753408 0.908425 0.748588 0.885493 0.756553 0.864268 0.753408 0.908425 0.371009 0.445529 0.379246 0.436671 0.381119 0.448465 0.379246 0.436671 0.371009 0.445529 0.367800 0.437436 0.378956 0.423964 0.379451 0.529699 0.379451 0.551431 0.372657 0.548461 0.371009 0.445529 0.381119 0.448465 0.381119 0.465251 0.686093 0.283324 0.678895 0.276864 0.669920 0.259179 0.678996 0.262207 0.686093 0.283324 0.686307 0.292826 0.678895 0.276864 0.367800 0.437436 0.371009 0.445529 0.367269 0.453390 0.381119 0.465251 0.367269 0.453390 0.371009 0.445529 0.656944 0.256647 0.669136 0.245184 0.668011 0.259014 0.973321 0.730327 0.957043 0.727108 0.951061 0.707546 0.968386 0.702691 0.968386 0.702691 0.951061 0.707546 0.937475 0.690801 0.949787 0.673821 0.380528 0.484282 0.381119 0.506919 0.370373 0.492427 0.372145 0.485238 0.381119 0.473982 0.372145 0.485238 0.374270 0.466035 0.682188 0.869289 
						0.675585 0.967496 0.668442 0.969485 0.589902 0.875007 0.604619 0.863758 0.587685 0.861309 0.682188 0.813204 0.678553 0.855387 0.659190 0.859671 0.641873 0.862805 0.651200 0.864631 0.668915 0.867259 0.673543 0.861916 0.001960 0.789541 0.085502 0.719079 0.095838 0.724003 0.112932 0.721382 0.174263 0.785677 0.174263 0.891719 0.167656 0.901877 0.159048 0.911440 0.094277 0.938935 0.017945 0.916269 0.010622 0.914604 0.007408 0.903120 0.001062 0.883793 0.000392 0.876187 0.001789 0.832678 0.002780 0.821192 0.002670 0.806850 0.641951 0.268676 0.659385 0.291628 0.648879 0.295080 0.999608 0.000392 0.999608 0.213399 0.920641 0.120145 0.641951 0.268676 0.648879 0.295080 0.636429 0.278705 0.678996 0.262207 0.676053 0.245184 0.686307 0.253509 0.636429 0.205662 0.702922 0.042956 0.817466 0.000392 0.832665 0.025204 0.838320 0.037875 0.838320 0.233155 0.814380 0.236252 0.793623 0.242092 0.773662 0.237619 0.764435 0.235967 0.753378 0.244400 0.668011 0.259014 0.669136 0.288089 0.659385 0.291628 0.641951 0.268676 0.656944 0.256647 0.411564 0.888064 0.393556 0.854505 0.405874 0.852961 0.949787 0.673821 0.934057 0.651203 0.943685 0.629994 0.949787 0.673821 
						0.925839 0.669651 0.934057 0.651203 0.752473 0.845326 0.742133 0.824830 0.759559 0.820500 0.386296 0.882433 0.393556 0.854505 0.411564 0.888064 0.685747 0.825391 0.682972 0.813203 0.692117 0.816091 0.433809 0.842014 0.435741 0.849053 0.435180 0.862945 0.431827 0.891889 0.435741 0.910170 0.428724 0.920407 0.412279 0.915846 0.412279 0.915846 0.428724 0.920407 0.399847 0.935051 0.395469 0.928194 0.411564 0.888064 0.412279 0.915846 0.395469 0.928194 0.381903 0.925236 0.395469 0.928194 0.388279 0.938565 0.381903 0.925236 0.718939 0.882550 0.691718 0.859202 0.685747 0.825391 0.692117 0.816091 0.718356 0.822940 0.718939 0.882550 0.729852 0.903679 0.698076 0.935274 0.700551 0.915659 0.910138 0.297027 0.839104 0.297027 0.845620 0.209647 0.866808 0.221434 0.870764 0.227818 0.759559 0.947249 0.735592 0.946696 0.729942 0.939034 0.757580 0.935626 0.730086 0.919451 0.729942 0.939034 0.721128 0.942528 0.707070 0.939792 0.847913 0.199685 0.872559 0.190560 0.876818 0.204455 0.854978 0.202097 0.730086 0.919451 0.707070 0.939792 0.729852 0.903679 0.872559 0.190560 0.914851 0.190398 0.889226 0.204970 0.876818 0.204455 0.379451 0.520859 0.370373 0.515972 
						0.379451 0.507703 0.458846 0.302461 0.586901 0.389177 0.586901 0.627015 0.442566 0.573626 0.388336 0.527745 0.381903 0.457674 0.389418 0.441642 0.384950 0.426591 0.445900 0.319915 0.880471 0.174198 0.874934 0.168442 0.882889 0.161171 0.914851 0.190398 0.906764 0.135783 0.887223 0.132064 0.892089 0.079245 0.900357 0.078852 0.892089 0.079245 0.891950 0.059892 0.909151 0.048786 0.892643 0.049225 0.893351 0.036570 0.902798 0.021641 0.912385 0.040725 0.914851 0.190398 0.882889 0.161171 0.884675 0.146885 0.906764 0.135783 0.898477 0.000392 0.907164 0.005869 0.902798 0.021641 0.896206 0.013449 0.767439 0.566412 0.759772 0.572235 0.676131 0.598347 0.587685 0.472408 0.588386 0.364819 0.591695 0.358269 0.603371 0.340224 0.607961 0.328935 0.622908 0.302462 0.714834 0.316426 0.721638 0.326649 0.733409 0.319217 0.770213 0.324700 0.770213 0.536263 0.764296 0.544462 0.763654 0.558161 0.585800 0.629666 0.585800 0.841230 0.391490 0.790992 0.387360 0.782771 0.381903 0.771651 0.422960 0.714650 0.451042 0.714074 0.493328 0.705843 0.503267 0.696276 0.494839 0.688675 0.468679 0.668154 0.456625 0.667912 0.466467 0.654247 0.478178 0.650314 0.510866 0.641197 
						0.537801 0.636698 0.565956 0.627799 0.846108 0.321546 0.932917 0.302461 0.947137 0.312474 0.947137 0.534997 0.805826 0.510341 0.770997 0.338059 0.807432 0.330049 0.826431 0.333557 0.833748 0.334688 0.366713 0.950081 0.212060 0.950081 0.290285 0.753533 0.687091 0.262035 0.689448 0.254952 0.703837 0.245184 0.703693 0.254306 0.692599 0.270028 0.692599 0.270028 0.703693 0.254306 0.703837 0.288400 0.949787 0.673821 0.970358 0.655200 0.970086 0.674152 0.909151 0.048786 0.900357 0.078852 0.891950 0.059892 0.892643 0.049225 0.906764 0.135783 0.892089 0.079245 0.900142 0.089603 0.905942 0.127170 0.892089 0.079245 0.900357 0.078852 0.900142 0.089603 0.912385 0.040725 0.902798 0.021641 0.907164 0.005869 0.913825 0.018637 0.912385 0.040725 0.913825 0.018637 0.917535 0.034419 0.909151 0.048786 0.919079 0.060844 0.900357 0.078852 0.949787 0.673821 0.970086 0.674152 0.968386 0.702691 0.949787 0.673821 0.943685 0.629994 0.953381 0.607405 0.964832 0.602680 0.973321 0.599131 0.970358 0.655200 0.960088 0.735973 0.957043 0.727108 0.973321 0.730327 0.370373 0.515972 0.379451 0.520859 0.375499 0.528915 0.914851 0.190398 0.919857 0.208863 0.889226 0.204970 
						0.925055 0.632920 0.925055 0.828201 0.918781 0.843715 0.910034 0.860831 0.818278 0.801458 0.807976 0.787059 0.801926 0.764186 0.800199 0.737439 0.800011 0.727963 0.807512 0.712885 0.821505 0.702043 0.848549 0.694909 0.861262 0.690084 0.866854 0.685646 0.859680 0.680457 0.842126 0.670775 0.833998 0.661680 0.865974 0.599131 0.887517 0.610969 0.907566 0.622823 0.401104 0.188312 0.381903 0.189405 0.414028 0.086721 0.635645 0.000392 0.635645 0.301678 0.547382 0.285923 0.535386 0.280360 0.528624 0.275857 0.513710 0.271590 0.501266 0.269317 0.490794 0.271280 0.472262 0.267230 0.423856 0.248268 0.410848 0.241338 0.397980 0.235546 0.394992 0.225361 0.588175 0.792472 0.628110 0.702509 0.641054 0.699885 0.630660 0.688685 0.648621 0.650344 0.721233 0.599131 0.732063 0.603665 0.743106 0.604249 0.753479 0.604383 0.799227 0.812419 0.587685 0.812419 0.146916 0.423964 0.211276 0.718295 0.000392 0.718295 0.227090 0.556268 0.364419 0.423964 0.364419 0.752749 0.212060 0.590567 0.218088 0.586163 0.220354 0.576725 
					</float_array>
					<technique_common>
						<accessor count="504" offset="0" source="#meshId0-tex0-array" stride="2">
							<param name="S" type="float" />
							<param name="T" type="float" />
						</accessor>
					</technique_common>
				</source>
				<vertices id="meshId0-vertices">
					<input semantic="POSITION" source="#meshId0-positions" />
				</vertices>
				<polylist count="286" material="defaultMaterial">
					<input offset="0" semantic="VERTEX" source="#meshId0-vertices" />
					<input offset="0" semantic="NORMAL" source="#meshId0-normals" />
					<input offset="0" semantic="TANGENT" source="#meshId0-tangents" />
					<input offset="0" semantic="BINORMAL" source="#meshId0-bitangents" />
					<input offset="0" semantic="TEXCOORD" source="#meshId0-tex0" set="0" />
					<vcount>
						3 3 3 3 3 3 3 3 3 3 3 3 3 3 3 3 3 3 3 3 3 3 3 3 3 3 3 3 3 3 3 3 3 3 3 3 3 3 3 3 3 3 3 3 3 3 3 3 3 3 3 3 3 3 3 3 3 3 3 3 3 3 3 3 
						3 3 3 3 3 3 3 3 3 3 3 3 3 3 3 3 3 3 3 3 3 3 3 3 3 3 3 3 3 3 3 3 3 3 3 3 3 3 3 3 3 3 3 3 3 3 3 3 3 3 3 3 3 3 3 3 3 3 3 3 3 3 3 3 
						3 3 3 3 3 3 3 3 3 3 3 3 3 3 3 3 3 3 3 3 3 3 3 3 3 3 3 3 3 3 3 3 3 3 3 3 3 3 3 3 3 3 3 3 3 3 3 3 3 3 3 3 3 3 3 3 3 3 3 3 3 3 3 3 
						3 3 3 3 3 3 3 3 3 3 3 3 3 3 3 3 3 3 3 3 3 3 3 3 3 3 3 3 3 3 3 3 3 3 3 3 3 3 3 3 3 3 3 3 3 3 3 3 3 3 3 3 3 3 3 3 3 3 3 3 3 3 3 3 
						3 3 3 3 3 3 3 3 3 3 3 3 3 3 3 3 3 3 3 3 3 3 3 3 3 3 3 3 3 3 
					</vcount>
					<p>
						0 1 2 3 4 5 6 7 8 9 10 11 12 13 14 15 16 17 18 19 20 21 22 23 24 25 26 27 28 29 30 31 32 33 34 35 36 37 38 39 40 41 42 43 44 45 46 47 51 48 49 49 50 51 52 53 54 58 55 56 56 57 58 59 60 61 65 62 63 63 64 65 66 67 68 72 69 70 70 71 72 73 74 75 76 77 78 79 80 81 82 83 84 85 86 87 91 88 89 89 90 91 92 93 94 95 96 97 128 98 99 128 99 100 128 100 101 128 101 102 128 102 103 103 104 105 103 105 106 103 106 107 103 107 108 103 108 109 103 109 110 103 110 111 103 111 112 103 112 113 103 113 114 103 114 115 103 115 116 103 116 117 103 117 118 103 118 119 103 119 120 103 120 121 103 121 122 103 122 123 103 123 124 103 124 125 103 125 126 103 126 127 
						103 127 128 129 130 131 132 133 134 135 136 137 138 139 140 141 142 143 144 145 146 147 148 149 153 150 151 151 152 153 154 155 156 157 158 159 163 160 161 161 162 163 164 165 166 167 168 169 170 171 172 173 174 175 179 176 177 177 178 179 183 180 181 181 182 183 187 184 185 185 186 187 188 189 190 203 191 192 203 192 193 193 194 195 195 196 197 195 197 198 195 198 199 195 199 200 195 200 201 195 201 202 202 203 193 193 195 202 220 204 205 220 205 206 220 206 207 220 207 208 220 208 209 220 209 210 220 210 211 220 211 212 220 212 213 220 213 214 220 214 215 215 216 217 215 217 218 215 218 219 215 219 220 221 222 223 224 225 226 227 228 229 230 231 232 243 233 234 243 234 235 243 235 236 243 236 237 237 238 239 237 239 240 237 240 241 237 241 242 237 242 243 
						248 244 245 248 245 246 246 247 248 249 250 251 252 253 254 255 256 257 258 259 260 261 262 263 264 265 266 267 268 269 273 270 271 271 272 273 277 274 275 275 276 277 281 278 279 279 280 281 282 283 284 289 285 286 289 286 287 287 288 289 293 290 291 291 292 293 298 294 295 298 295 296 296 297 298 302 299 300 300 301 302 306 303 304 304 305 306 310 307 308 308 309 310 311 312 313 317 314 315 315 316 317 318 319 320 329 321 322 329 322 323 329 323 324 329 324 325 325 326 327 327 328 329 325 327 329 333 330 331 331 332 333 334 335 336 337 338 339 344 340 341 344 341 342 342 343 344 348 345 346 346 347 348 352 349 350 350 351 352 368 353 354 368 354 355 368 355 356 368 356 357 368 357 358 368 358 359 368 359 360 368 360 361 368 361 362 368 362 363 368 363 364 
						368 364 365 365 366 367 365 367 368 385 369 370 370 371 372 370 372 373 370 373 374 370 374 375 370 375 376 370 376 377 379 380 381 379 381 382 379 382 383 379 383 384 379 384 385 385 370 377 385 377 378 378 379 385 394 386 387 394 387 388 394 388 389 394 389 390 394 390 391 391 392 393 391 393 394 395 396 397 402 398 399 402 399 400 400 401 402 403 404 405 406 407 408 412 409 410 410 411 412 416 413 414 414 415 416 417 418 419 423 420 421 421 422 423 424 425 426 427 428 429 430 431 432 438 433 434 438 434 435 438 435 436 436 437 438 439 440 441 442 443 444 445 446 447 467 448 449 467 449 450 467 450 451 467 451 452 467 452 453 453 454 455 453 455 456 453 456 457 453 457 458 453 458 459 453 459 460 453 460 461 462 463 464 462 464 465 462 465 466 462 466 467 
						467 453 461 461 462 467 468 469 470 468 470 471 468 471 472 468 472 473 468 473 474 468 474 475 468 475 476 468 476 477 468 477 478 468 478 479 468 479 480 468 480 481 468 481 482 468 482 483 494 484 485 494 485 486 486 487 488 486 488 489 486 489 490 486 490 491 486 491 492 486 492 493 486 493 494 495 496 497 503 498 499 503 499 500 500 501 502 500 502 503 
					</p>
				</polylist>
			</mesh>
		</geometry>
	</library_geometries>
	<library_visual_scenes>
		<visual_scene id="RootNode" name="RootNode">
			<node id="Rock" name="Rock">
				<matrix>1.000000 0.000000 0.000000 0.000000 0.000000 1.000000 0.000000 0.000000 0.000000 0.000000 1.000000 0.000000 0.000000 0.000000 0.000000 1.000000</matrix>
				<instance_geometry url="#meshId0">
					<bind_material>
						<technique_common>
							<instance_material symbol="defaultMaterial" target="#DefaultMaterial" />
						</technique_common>
					</bind_material>
				</instance_geometry>
			</node>
		</visual_scene>
	</library_visual_scenes>
	<scene>
		<instance_visual_scene url="#RootNode" />
	</scene>
</COLLADA>
